\relax 
\providecommand\hyper@newdestlabel[2]{}
\providecommand\HyperFirstAtBeginDocument{\AtBeginDocument}
\HyperFirstAtBeginDocument{\ifx\hyper@anchor\@undefined
\global\let\oldcontentsline\contentsline
\gdef\contentsline#1#2#3#4{\oldcontentsline{#1}{#2}{#3}}
\global\let\oldnewlabel\newlabel
\gdef\newlabel#1#2{\newlabelxx{#1}#2}
\gdef\newlabelxx#1#2#3#4#5#6{\oldnewlabel{#1}{{#2}{#3}}}
\AtEndDocument{\ifx\hyper@anchor\@undefined
\let\contentsline\oldcontentsline
\let\newlabel\oldnewlabel
\fi}
\fi}
\global\let\hyper@last\relax 
\gdef\HyperFirstAtBeginDocument#1{#1}
\providecommand\HyField@AuxAddToFields[1]{}
\providecommand\HyField@AuxAddToCoFields[2]{}
\bbl@cs{beforestart}
\catcode `"\active 
\babel@aux{polish}{}
\citation{szablon_raportu}
\citation{wymogi_raportu}
\citation{bhp}
\@writefile{toc}{\contentsline {section}{\numberline {I.}Cel zajęć}{2}{section.1}\protected@file@percent }
\@writefile{toc}{\contentsline {section}{\numberline {II.}Polecenia końcowe}{2}{section.2}\protected@file@percent }
\@writefile{toc}{\contentsline {section}{\numberline {III.}Przygotowanie do zajęć}{2}{section.3}\protected@file@percent }
\@writefile{toc}{\contentsline {subsection}{\numberline {a)}Zapoznanie z przepisami BHP}{2}{subsection.3.1}\protected@file@percent }
\citation{cs1}
\citation{csmono}
\citation{csecma}
\citation{csiso}
\citation{cscts}
\citation{csdotnet}
\@writefile{toc}{\contentsline {subsection}{\numberline {b)}Wprowadzenie do C\# i .NET}{3}{subsection.3.2}\protected@file@percent }
\@writefile{lof}{\contentsline {figure}{\numberline {1}{\ignorespaces  Komponenty platformy .NET. \relax }}{3}{figure.caption.1}\protected@file@percent }
\providecommand*\caption@xref[2]{\@setref\relax\@undefined{#1}}
\newlabel{fig:dotnet}{{1}{3}{Komponenty platformy .NET. \relax }{figure.caption.1}{}}
\citation{cs2}
\citation{vs}
\citation{linq}
\@writefile{lof}{\contentsline {figure}{\numberline {2}{\ignorespaces  Architektura platformy .NET. \relax }}{4}{figure.caption.2}\protected@file@percent }
\newlabel{fig:csdotnet}{{2}{4}{Architektura platformy .NET. \relax }{figure.caption.2}{}}
\@writefile{toc}{\contentsline {subsubsection}{\numberline {1.}Technologia LINQ}{4}{subsubsection.3.2.1}\protected@file@percent }
\citation{linqphp}
\citation{linqjs}
\citation{jsonlib}
\citation{httpreq}
\citation{httpclient}
\newlabel{lst:json}{{1}{5}{Przykładowe dane w formacie JSON}{lstlisting.1}{}}
\@writefile{lol}{\contentsline {lstlisting}{\numberline {1}Przykładowe dane w formacie JSON.}{5}{lstlisting.1}\protected@file@percent }
\newlabel{lst:linq}{{2}{5}{Przykład obsługi danych w formacie JSON z wykorzystaniem LINQ}{lstlisting.2}{}}
\@writefile{lol}{\contentsline {lstlisting}{\numberline {2}Przykład obsługi danych w formacie JSON z wykorzystaniem LINQ.}{5}{lstlisting.2}\protected@file@percent }
\@writefile{toc}{\contentsline {subsubsection}{\numberline {2.}HttpWebRequest i HttpClient}{5}{subsubsection.3.2.2}\protected@file@percent }
\newlabel{lst:reqget}{{3}{5}{Przykład konfiguracji zapytania HTTP metodą GET z użyciem klasy \lstinline {HttpWebRequest}}{lstlisting.3}{}}
\@writefile{lol}{\contentsline {lstlisting}{\numberline {3}Przykład konfiguracji zapytania HTTP metodą GET z użyciem klasy \lstinline {HttpWebRequest}.}{5}{lstlisting.3}\protected@file@percent }
\newlabel{lst:reqpost}{{4}{5}{Przykład konfiguracji zapytania HTTP metodą POST z użyciem klasy \lstinline {HttpWebRequest}}{lstlisting.4}{}}
\@writefile{lol}{\contentsline {lstlisting}{\numberline {4}Przykład konfiguracji zapytania HTTP metodą POST z użyciem klasy \lstinline {HttpWebRequest}.}{5}{lstlisting.4}\protected@file@percent }
\citation{wpf1}
\citation{wpf2}
\citation{xaml1}
\newlabel{lst:reqres}{{5}{6}{Przykład wysyłania zapytania HTTP i odczytywania odpowiedzi serwera użyciem klasy \lstinline {HttpWebRequest}}{lstlisting.5}{}}
\@writefile{lol}{\contentsline {lstlisting}{\numberline {5}Przykład wysyłania zapytania HTTP i odczytywania odpowiedzi serwera użyciem klasy \lstinline {HttpWebRequest}.}{6}{lstlisting.5}\protected@file@percent }
\newlabel{lst:clientget}{{6}{6}{Przykład zapytania HTTP metodą GET z użyciem klasy \lstinline {HttpClient}}{lstlisting.6}{}}
\@writefile{lol}{\contentsline {lstlisting}{\numberline {6}Przykład zapytania HTTP metodą GET z użyciem klasy \lstinline {HttpClient}.}{6}{lstlisting.6}\protected@file@percent }
\newlabel{lst:clientpost}{{7}{6}{Przykład zapytania HTTP metodą POST z użyciem klasy \lstinline {HttpClient}}{lstlisting.7}{}}
\@writefile{lol}{\contentsline {lstlisting}{\numberline {7}Przykład zapytania HTTP metodą POST z użyciem klasy \lstinline {HttpClient}.}{6}{lstlisting.7}\protected@file@percent }
\@writefile{toc}{\contentsline {subsection}{\numberline {c)}Wprowadzenie do WPF i XAML}{6}{subsection.3.3}\protected@file@percent }
\citation{inotifypropertychanged}
\citation{icommand}
\citation{binding}
\newlabel{lst:xaml1}{{8}{7}{Składnia XAML: atrybuty jako część definicji elementu}{lstlisting.8}{}}
\@writefile{lol}{\contentsline {lstlisting}{\numberline {8}Składnia XAML: atrybuty jako część definicji elementu.}{7}{lstlisting.8}\protected@file@percent }
\newlabel{lst:xaml2}{{9}{7}{Składnia XAML: hierarchiczna definicja atrybutów wewnątrz elementu}{lstlisting.9}{}}
\@writefile{lol}{\contentsline {lstlisting}{\numberline {9}Składnia XAML: hierarchiczna definicja atrybutów wewnątrz elementu.}{7}{lstlisting.9}\protected@file@percent }
\@writefile{toc}{\contentsline {subsection}{\numberline {d)}Wzorzec projektowy MVVM}{7}{subsection.3.4}\protected@file@percent }
\@writefile{lof}{\contentsline {figure}{\numberline {3}{\ignorespaces  Relacja między widokiem, modelem widoku a modelem we wzorcu projektowym MVVM. \relax }}{7}{figure.caption.3}\protected@file@percent }
\newlabel{fig:mvvm}{{3}{7}{Relacja między widokiem, modelem widoku a modelem we wzorcu projektowym MVVM. \relax }{figure.caption.3}{}}
\newlabel{lst:binding1}{{10}{8}{Przykład elementu XAML wykorzystujący mechanizm \textit {data binding}}{lstlisting.10}{}}
\@writefile{lol}{\contentsline {lstlisting}{\numberline {10}Przykład elementu XAML wykorzystujący mechanizm \textit  {data binding}.}{8}{lstlisting.10}\protected@file@percent }
\newlabel{lst:binding2}{{11}{8}{Przykład prostej klasy realizującej model widoku z właściwością \lstinline {Input} związaną z elementem GUI}{lstlisting.11}{}}
\@writefile{lol}{\contentsline {lstlisting}{\numberline {11}Przykład prostej klasy realizującej model widoku z właściwością \lstinline {Input} związaną z elementem GUI.}{8}{lstlisting.11}\protected@file@percent }
\@writefile{toc}{\contentsline {section}{\numberline {IV.}Scenariusz do zajęć}{8}{section.4}\protected@file@percent }
\@writefile{toc}{\contentsline {subsection}{\numberline {a)}Środki dydaktyczne}{8}{subsection.4.1}\protected@file@percent }
\@writefile{toc}{\contentsline {subsection}{\numberline {b)}Zadania do realizacji}{8}{subsection.4.2}\protected@file@percent }
\newlabel{exercises}{{b)}{8}{Zadania do realizacji}{subsection.4.2}{}}
\citation{oxy}
\bibstyle{../TemplateLatex/IEEEtranPL}
\bibdata{../TemplateLatex/AM_REF}
\bibcite{szablon_raportu}{1}
\bibcite{wymogi_raportu}{2}
\bibcite{bhp}{3}
\bibcite{cs1}{4}
\bibcite{csmono}{5}
\bibcite{csecma}{6}
\bibcite{csiso}{7}
\bibcite{cscts}{8}
\bibcite{csdotnet}{9}
\bibcite{cs2}{10}
\bibcite{vs}{11}
\bibcite{linq}{12}
\bibcite{linqphp}{13}
\bibcite{linqjs}{14}
\bibcite{jsonlib}{15}
\bibcite{httpreq}{16}
\bibcite{httpclient}{17}
\bibcite{wpf1}{18}
\bibcite{wpf2}{19}
\bibcite{xaml1}{20}
\bibcite{inotifypropertychanged}{21}
\bibcite{icommand}{22}
\bibcite{binding}{23}
\bibcite{oxy}{24}
\newlabel{LastPage}{{}{10}{}{page.10}{}}
\xdef\lastpage@lastpage{10}
\xdef\lastpage@lastpageHy{10}
