\relax 
\providecommand\hyper@newdestlabel[2]{}
\providecommand\HyperFirstAtBeginDocument{\AtBeginDocument}
\HyperFirstAtBeginDocument{\ifx\hyper@anchor\@undefined
\global\let\oldcontentsline\contentsline
\gdef\contentsline#1#2#3#4{\oldcontentsline{#1}{#2}{#3}}
\global\let\oldnewlabel\newlabel
\gdef\newlabel#1#2{\newlabelxx{#1}#2}
\gdef\newlabelxx#1#2#3#4#5#6{\oldnewlabel{#1}{{#2}{#3}}}
\AtEndDocument{\ifx\hyper@anchor\@undefined
\let\contentsline\oldcontentsline
\let\newlabel\oldnewlabel
\fi}
\fi}
\global\let\hyper@last\relax 
\gdef\HyperFirstAtBeginDocument#1{#1}
\providecommand\HyField@AuxAddToFields[1]{}
\providecommand\HyField@AuxAddToCoFields[2]{}
\bbl@cs{beforestart}
\babel@aux{english}{}
\citation{szablon_raportu}
\citation{wymogi_raportu_ENG}
\citation{bhp_ENG}
\citation{cs1}
\citation{csmono}
\citation{csecma}
\citation{csiso}
\@writefile{toc}{\contentsline {section}{\numberline {I.}Goal}{2}{section.1}\protected@file@percent }
\@writefile{toc}{\contentsline {section}{\numberline {II.}Final Task}{2}{section.2}\protected@file@percent }
\@writefile{toc}{\contentsline {section}{\numberline {III.}Prepare to course}{2}{section.3}\protected@file@percent }
\@writefile{toc}{\contentsline {subsection}{\numberline {a)}Know the safety rules}{2}{subsection.3.1}\protected@file@percent }
\citation{cscts}
\citation{csdotnet}
\@writefile{toc}{\contentsline {subsection}{\numberline {b)}Introduction to C\# and .NET}{3}{subsection.3.2}\protected@file@percent }
\@writefile{lof}{\contentsline {figure}{\numberline {1}{\ignorespaces  .NET Framework components. \relax }}{3}{figure.caption.1}\protected@file@percent }
\providecommand*\caption@xref[2]{\@setref\relax\@undefined{#1}}
\newlabel{fig:dotnet}{{1}{3}{.NET Framework components. \relax }{figure.caption.1}{}}
\citation{cs2}
\citation{vs}
\citation{linq}
\citation{linqphp}
\citation{linqjs}
\@writefile{lof}{\contentsline {figure}{\numberline {2}{\ignorespaces  .NET Framework architecture. \relax }}{4}{figure.caption.2}\protected@file@percent }
\newlabel{fig:csdotnet}{{2}{4}{.NET Framework architecture. \relax }{figure.caption.2}{}}
\@writefile{toc}{\contentsline {subsubsection}{\numberline {1.}LINQ technology}{4}{subsubsection.3.2.1}\protected@file@percent }
\citation{jsonlib}
\citation{httpreq}
\citation{httpclient}
\newlabel{lst:json}{{1}{5}{An example of data in JSON format}{lstlisting.1}{}}
\@writefile{lol}{\contentsline {lstlisting}{\numberline {1}An example of data in JSON format.}{5}{lstlisting.1}\protected@file@percent }
\newlabel{lst:linq}{{2}{5}{An example of handling JSON using LINQ}{lstlisting.2}{}}
\@writefile{lol}{\contentsline {lstlisting}{\numberline {2}An example of handling JSON using LINQ.}{5}{lstlisting.2}\protected@file@percent }
\@writefile{toc}{\contentsline {subsubsection}{\numberline {2.}HttpWebRequest and HttpClient}{5}{subsubsection.3.2.2}\protected@file@percent }
\newlabel{lst:reqget}{{3}{5}{An example of HTTP GET request configuration using \lstinline {HttpWebRequest} class}{lstlisting.3}{}}
\@writefile{lol}{\contentsline {lstlisting}{\numberline {3}An example of HTTP GET request configuration using \lstinline {HttpWebRequest} class.}{5}{lstlisting.3}\protected@file@percent }
\newlabel{lst:reqpost}{{4}{5}{An example of HTTP POST request configuration using \lstinline {HttpWebRequest} class}{lstlisting.4}{}}
\@writefile{lol}{\contentsline {lstlisting}{\numberline {4}An example of HTTP POST request configuration using \lstinline {HttpWebRequest} class.}{5}{lstlisting.4}\protected@file@percent }
\citation{wpf1}
\citation{wpf2}
\citation{xaml1}
\newlabel{lst:reqres}{{5}{6}{An example of sending an HTTP request and reading server response using \lstinline {HttpWebRequest} class}{lstlisting.5}{}}
\@writefile{lol}{\contentsline {lstlisting}{\numberline {5}An example of sending an HTTP request and reading server response using \lstinline {HttpWebRequest} class.}{6}{lstlisting.5}\protected@file@percent }
\newlabel{lst:clientget}{{6}{6}{An example of HTTP GET request using \lstinline {HttpClient} class}{lstlisting.6}{}}
\@writefile{lol}{\contentsline {lstlisting}{\numberline {6}An example of HTTP GET request using \lstinline {HttpClient} class.}{6}{lstlisting.6}\protected@file@percent }
\newlabel{lst:clientpost}{{7}{6}{An example of HTTP POST request using \lstinline {HttpClient} class}{lstlisting.7}{}}
\@writefile{lol}{\contentsline {lstlisting}{\numberline {7}An example of HTTP POST request using \lstinline {HttpClient} class.}{6}{lstlisting.7}\protected@file@percent }
\@writefile{toc}{\contentsline {subsection}{\numberline {c)}Introduction to WPF and XAML}{6}{subsection.3.3}\protected@file@percent }
\citation{inotifypropertychanged}
\citation{icommand}
\citation{binding}
\newlabel{lst:xaml1}{{8}{7}{XAML syntax: attributes as part of the element definition}{lstlisting.8}{}}
\@writefile{lol}{\contentsline {lstlisting}{\numberline {8}XAML syntax: attributes as part of the element definition.}{7}{lstlisting.8}\protected@file@percent }
\newlabel{lst:xaml2}{{9}{7}{XAML syntax: hierarchical definition of attributes within an element body}{lstlisting.9}{}}
\@writefile{lol}{\contentsline {lstlisting}{\numberline {9}XAML syntax: hierarchical definition of attributes within an element body.}{7}{lstlisting.9}\protected@file@percent }
\@writefile{toc}{\contentsline {subsection}{\numberline {d)}MVVM design pattern}{7}{subsection.3.4}\protected@file@percent }
\@writefile{lof}{\contentsline {figure}{\numberline {3}{\ignorespaces The relationship between a View, a View Model, and a Model in the MVVM design pattern.\relax }}{7}{figure.caption.3}\protected@file@percent }
\newlabel{fig:mvvm}{{3}{7}{The relationship between a View, a View Model, and a Model in the MVVM design pattern.\relax }{figure.caption.3}{}}
\newlabel{lst:binding1}{{10}{8}{An example of an XAML element using \textit {data binding} mechanism}{lstlisting.10}{}}
\@writefile{lol}{\contentsline {lstlisting}{\numberline {10}An example of an XAML element using \textit  {data binding} mechanism.}{8}{lstlisting.10}\protected@file@percent }
\newlabel{lst:binding2}{{11}{8}{An example of a simple class implementing a View Model with the \lstinline {Input} property associated with a GUI element}{lstlisting.11}{}}
\@writefile{lol}{\contentsline {lstlisting}{\numberline {11}An example of a simple class implementing a View Model with the \lstinline {Input} property associated with a GUI element.}{8}{lstlisting.11}\protected@file@percent }
\@writefile{toc}{\contentsline {section}{\numberline {IV.}Scenario for the class}{8}{section.4}\protected@file@percent }
\@writefile{toc}{\contentsline {subsection}{\numberline {a)}Teaching resources}{8}{subsection.4.1}\protected@file@percent }
\@writefile{toc}{\contentsline {subsection}{\numberline {b)}Tasks}{8}{subsection.4.2}\protected@file@percent }
\newlabel{exercises}{{b)}{8}{Tasks}{subsection.4.2}{}}
\citation{oxy}
\bibstyle{IEEEtran}
\bibdata{../TemplateLatex/AM_REF}
\bibcite{szablon_raportu}{1}
\bibcite{wymogi_raportu_ENG}{2}
\bibcite{bhp_ENG}{3}
\bibcite{cs1}{4}
\bibcite{csmono}{5}
\bibcite{csecma}{6}
\bibcite{csiso}{7}
\bibcite{cscts}{8}
\bibcite{csdotnet}{9}
\bibcite{cs2}{10}
\bibcite{vs}{11}
\bibcite{linq}{12}
\bibcite{linqphp}{13}
\bibcite{linqjs}{14}
\bibcite{jsonlib}{15}
\bibcite{httpreq}{16}
\bibcite{httpclient}{17}
\bibcite{wpf1}{18}
\bibcite{wpf2}{19}
\bibcite{xaml1}{20}
\bibcite{inotifypropertychanged}{21}
\bibcite{icommand}{22}
\bibcite{binding}{23}
\bibcite{oxy}{24}
\newlabel{LastPage}{{}{10}{}{page.10}{}}
\xdef\lastpage@lastpage{10}
\xdef\lastpage@lastpageHy{10}
