\relax 
\providecommand\hyper@newdestlabel[2]{}
\providecommand\HyperFirstAtBeginDocument{\AtBeginDocument}
\HyperFirstAtBeginDocument{\ifx\hyper@anchor\@undefined
\global\let\oldcontentsline\contentsline
\gdef\contentsline#1#2#3#4{\oldcontentsline{#1}{#2}{#3}}
\global\let\oldnewlabel\newlabel
\gdef\newlabel#1#2{\newlabelxx{#1}#2}
\gdef\newlabelxx#1#2#3#4#5#6{\oldnewlabel{#1}{{#2}{#3}}}
\AtEndDocument{\ifx\hyper@anchor\@undefined
\let\contentsline\oldcontentsline
\let\newlabel\oldnewlabel
\fi}
\fi}
\global\let\hyper@last\relax 
\gdef\HyperFirstAtBeginDocument#1{#1}
\providecommand\HyField@AuxAddToFields[1]{}
\providecommand\HyField@AuxAddToCoFields[2]{}
\bbl@cs{beforestart}
\catcode `"\active 
\babel@aux{polish}{}
\citation{szablon_raportu}
\citation{wymogi_raportu}
\citation{bhp}
\citation{php_doc}
\@writefile{toc}{\contentsline {section}{\numberline {I.}Cel zajęć}{2}{section.1}\protected@file@percent }
\@writefile{toc}{\contentsline {section}{\numberline {II.}Polecenia końcowe}{2}{section.2}\protected@file@percent }
\@writefile{toc}{\contentsline {section}{\numberline {III.}Przygotowanie do zajęć}{2}{section.3}\protected@file@percent }
\@writefile{toc}{\contentsline {subsection}{\numberline {a)}Zapoznanie z przepisami BHP}{2}{subsection.3.1}\protected@file@percent }
\@writefile{toc}{\contentsline {subsection}{\numberline {b)}Wprowadzenie do języka PHP}{2}{subsection.3.2}\protected@file@percent }
\newlabel{lst:lst1}{{1}{3}{Przykład operacji na zmiennych prostych}{lstlisting.1}{}}
\@writefile{lol}{\contentsline {lstlisting}{\numberline {1}Przykład operacji na zmiennych prostych.}{3}{lstlisting.1}\protected@file@percent }
\newlabel{lst:lst2}{{2}{3}{Przykład operacji na zmiennych tablicowych}{lstlisting.2}{}}
\@writefile{lol}{\contentsline {lstlisting}{\numberline {2}Przykład operacji na zmiennych tablicowych.}{3}{lstlisting.2}\protected@file@percent }
\newlabel{lst:lst3}{{3}{3}{Zmienne superglobalne w PHP}{lstlisting.3}{}}
\@writefile{lol}{\contentsline {lstlisting}{\numberline {3}Zmienne superglobalne w PHP.}{3}{lstlisting.3}\protected@file@percent }
\newlabel{lst:lst4}{{4}{3}{Formularz HTML}{lstlisting.4}{}}
\@writefile{lol}{\contentsline {lstlisting}{\numberline {4}Formularz HTML.}{3}{lstlisting.4}\protected@file@percent }
\citation{restful}
\citation{restful2}
\newlabel{lst:lst5}{{5}{4}{Mechanizm sesji}{lstlisting.5}{}}
\@writefile{lol}{\contentsline {lstlisting}{\numberline {5}Mechanizm sesji.}{4}{lstlisting.5}\protected@file@percent }
\@writefile{toc}{\contentsline {subsection}{\numberline {c)}Architektura REST}{4}{subsection.3.3}\protected@file@percent }
\@writefile{toc}{\contentsline {section}{\numberline {IV.}Scenariusz do zajęć}{4}{section.4}\protected@file@percent }
\@writefile{toc}{\contentsline {subsection}{\numberline {a)}Środki dydaktyczne}{4}{subsection.4.1}\protected@file@percent }
\@writefile{toc}{\contentsline {subsection}{\numberline {b)}Zadania do realizacji}{5}{subsection.4.2}\protected@file@percent }
\newlabel{exercises}{{b)}{5}{Zadania do realizacji}{subsection.4.2}{}}
\newlabel{lst:zad1}{{6}{5}{Testowy skrypt PHP}{lstlisting.6}{}}
\@writefile{lol}{\contentsline {lstlisting}{\numberline {6}Testowy skrypt PHP.}{5}{lstlisting.6}\protected@file@percent }
\newlabel{lst:zad8}{{7}{5}{Przykładowe dane w formacie JSON}{lstlisting.7}{}}
\@writefile{lol}{\contentsline {lstlisting}{\numberline {7}Przykładowe dane w formacie JSON.}{5}{lstlisting.7}\protected@file@percent }
\bibstyle{../TemplateLatex/IEEEtranPL}
\bibdata{../TemplateLatex/AM_REF}
\bibcite{szablon_raportu}{1}
\bibcite{wymogi_raportu}{2}
\bibcite{bhp}{3}
\bibcite{php_doc}{4}
\bibcite{restful}{5}
\newlabel{LastPage}{{}{7}{}{page.7}{}}
\xdef\lastpage@lastpage{7}
\xdef\lastpage@lastpageHy{7}
