\relax 
\providecommand\hyper@newdestlabel[2]{}
\providecommand\HyperFirstAtBeginDocument{\AtBeginDocument}
\HyperFirstAtBeginDocument{\ifx\hyper@anchor\@undefined
\global\let\oldcontentsline\contentsline
\gdef\contentsline#1#2#3#4{\oldcontentsline{#1}{#2}{#3}}
\global\let\oldnewlabel\newlabel
\gdef\newlabel#1#2{\newlabelxx{#1}#2}
\gdef\newlabelxx#1#2#3#4#5#6{\oldnewlabel{#1}{{#2}{#3}}}
\AtEndDocument{\ifx\hyper@anchor\@undefined
\let\contentsline\oldcontentsline
\let\newlabel\oldnewlabel
\fi}
\fi}
\global\let\hyper@last\relax 
\gdef\HyperFirstAtBeginDocument#1{#1}
\providecommand\HyField@AuxAddToFields[1]{}
\providecommand\HyField@AuxAddToCoFields[2]{}
\bbl@cs{beforestart}
\babel@aux{english}{}
\citation{szablon_raportu}
\citation{wymogi_raportu_ENG}
\citation{bhp_ENG}
\citation{php_doc}
\@writefile{toc}{\contentsline {section}{\numberline {I.}Goal}{2}{section.1}\protected@file@percent }
\@writefile{toc}{\contentsline {section}{\numberline {II.}Final Task}{2}{section.2}\protected@file@percent }
\@writefile{toc}{\contentsline {section}{\numberline {III.}Prepare to course}{2}{section.3}\protected@file@percent }
\@writefile{toc}{\contentsline {subsection}{\numberline {a)}Know the safety rules}{2}{subsection.3.1}\protected@file@percent }
\@writefile{toc}{\contentsline {subsection}{\numberline {b)}Introduction to the PHP language}{2}{subsection.3.2}\protected@file@percent }
\newlabel{lst:lst1}{{1}{3}{Basic variables operations}{lstlisting.1}{}}
\@writefile{lol}{\contentsline {lstlisting}{\numberline {1}Basic variables operations.}{3}{lstlisting.1}\protected@file@percent }
\newlabel{lst:lst2}{{2}{3}{Array variables operations}{lstlisting.2}{}}
\@writefile{lol}{\contentsline {lstlisting}{\numberline {2}Array variables operations.}{3}{lstlisting.2}\protected@file@percent }
\newlabel{lst:lst3}{{3}{3}{PHP superglobal variables}{lstlisting.3}{}}
\@writefile{lol}{\contentsline {lstlisting}{\numberline {3}PHP superglobal variables.}{3}{lstlisting.3}\protected@file@percent }
\newlabel{lst:lst4}{{4}{3}{HTML form}{lstlisting.4}{}}
\@writefile{lol}{\contentsline {lstlisting}{\numberline {4}HTML form.}{3}{lstlisting.4}\protected@file@percent }
\citation{restful}
\citation{restful2}
\newlabel{lst:lst5}{{5}{4}{SESSION superglobal varialbe}{lstlisting.5}{}}
\@writefile{lol}{\contentsline {lstlisting}{\numberline {5}SESSION superglobal varialbe.}{4}{lstlisting.5}\protected@file@percent }
\@writefile{toc}{\contentsline {subsection}{\numberline {c)}REST architecture}{4}{subsection.3.3}\protected@file@percent }
\@writefile{toc}{\contentsline {section}{\numberline {IV.}Scenario for the class}{5}{section.4}\protected@file@percent }
\@writefile{toc}{\contentsline {subsection}{\numberline {a)}Teaching resources}{5}{subsection.4.1}\protected@file@percent }
\@writefile{toc}{\contentsline {subsection}{\numberline {b)}Tasks}{5}{subsection.4.2}\protected@file@percent }
\newlabel{exercises}{{b)}{5}{Tasks}{subsection.4.2}{}}
\newlabel{lst:zad1}{{6}{5}{Test PHP script}{lstlisting.6}{}}
\@writefile{lol}{\contentsline {lstlisting}{\numberline {6}Test PHP script.}{5}{lstlisting.6}\protected@file@percent }
\bibstyle{IEEEtran}
\bibdata{../TemplateLatex/AM_REF}
\bibcite{szablon_raportu}{1}
\newlabel{lst:zad8}{{7}{6}{JSON data}{lstlisting.7}{}}
\@writefile{lol}{\contentsline {lstlisting}{\numberline {7}JSON data}{6}{lstlisting.7}\protected@file@percent }
\bibcite{wymogi_raportu_ENG}{2}
\bibcite{bhp_ENG}{3}
\bibcite{php_doc}{4}
\bibcite{restful}{5}
\newlabel{LastPage}{{}{7}{}{page.7}{}}
\xdef\lastpage@lastpage{7}
\xdef\lastpage@lastpageHy{7}
