\relax 
\providecommand\hyper@newdestlabel[2]{}
\providecommand\HyperFirstAtBeginDocument{\AtBeginDocument}
\HyperFirstAtBeginDocument{\ifx\hyper@anchor\@undefined
\global\let\oldcontentsline\contentsline
\gdef\contentsline#1#2#3#4{\oldcontentsline{#1}{#2}{#3}}
\global\let\oldnewlabel\newlabel
\gdef\newlabel#1#2{\newlabelxx{#1}#2}
\gdef\newlabelxx#1#2#3#4#5#6{\oldnewlabel{#1}{{#2}{#3}}}
\AtEndDocument{\ifx\hyper@anchor\@undefined
\let\contentsline\oldcontentsline
\let\newlabel\oldnewlabel
\fi}
\fi}
\global\let\hyper@last\relax 
\gdef\HyperFirstAtBeginDocument#1{#1}
\providecommand\HyField@AuxAddToFields[1]{}
\providecommand\HyField@AuxAddToCoFields[2]{}
\bbl@cs{beforestart}
\catcode `"\active 
\babel@aux{polish}{}
\citation{szablon_raportu}
\citation{wymogi_raportu}
\citation{bhp}
\citation{astropi}
\citation{sensehatproj}
\citation{sensehatdoc}
\@writefile{toc}{\contentsline {section}{\numberline {I.}Cel zajęć}{2}{section.1}\protected@file@percent }
\@writefile{toc}{\contentsline {section}{\numberline {II.}Polecenia końcowe}{2}{section.2}\protected@file@percent }
\@writefile{toc}{\contentsline {section}{\numberline {III.}Przygotowanie do zajęć}{2}{section.3}\protected@file@percent }
\@writefile{toc}{\contentsline {subsection}{\numberline {a)}Zapoznanie z przepisami BHP}{2}{subsection.3.1}\protected@file@percent }
\citation{lsm9ds1}
\citation{hts221}
\citation{lps25h}
\citation{attiny88mur}
\citation{cat24c32}
\citation{led2472g}
\citation{sensehatapi}
\citation{rtimulib}
\citation{sensehatemu}
\@writefile{toc}{\contentsline {subsection}{\numberline {b)}Wprowadzenie do Sense Hat}{3}{subsection.3.2}\protected@file@percent }
\@writefile{toc}{\contentsline {subsection}{\numberline {c)}Sense Hat API}{3}{subsection.3.3}\protected@file@percent }
\citation{trinket}
\citation{pyjsonapi}
\@writefile{toc}{\contentsline {subsection}{\numberline {d)}Emulacja Sense Hat}{4}{subsection.3.4}\protected@file@percent }
\@writefile{lof}{\contentsline {figure}{\numberline {1}{\ignorespaces  Emulator Sense Hat dostępny na maszynie wirtualnej. \relax }}{4}{figure.caption.1}\protected@file@percent }
\providecommand*\caption@xref[2]{\@setref\relax\@undefined{#1}}
\newlabel{fig:emu}{{1}{4}{Emulator Sense Hat dostępny na maszynie wirtualnej. \relax }{figure.caption.1}{}}
\@writefile{toc}{\contentsline {subsection}{\numberline {e)}JSON w języku Python}{4}{subsection.3.5}\protected@file@percent }
\newlabel{lst:jsonpy}{{1}{5}{Przykład kodowanie danych w notacji JSON w języku Python}{lstlisting.1}{}}
\@writefile{lol}{\contentsline {lstlisting}{\numberline {1}Przykład kodowanie danych w notacji JSON w języku Python.}{5}{lstlisting.1}\protected@file@percent }
\@writefile{lof}{\contentsline {figure}{\numberline {2}{\ignorespaces  Wynik realizacji skryptu z listingu \ref  {lst:jsonpy}. \relax }}{5}{figure.caption.2}\protected@file@percent }
\newlabel{fig:jsonpyresult}{{2}{5}{Wynik realizacji skryptu z listingu \ref {lst:jsonpy}. \relax }{figure.caption.2}{}}
\@writefile{toc}{\contentsline {section}{\numberline {IV.}Scenariusz do zajęć}{6}{section.4}\protected@file@percent }
\@writefile{toc}{\contentsline {subsection}{\numberline {a)}Środki dydaktyczne}{6}{subsection.4.1}\protected@file@percent }
\@writefile{toc}{\contentsline {subsection}{\numberline {b)}Zadania do realizacji}{6}{subsection.4.2}\protected@file@percent }
\newlabel{exercises}{{b)}{6}{Zadania do realizacji}{subsection.4.2}{}}
\bibstyle{../TemplateLatex/IEEEtranPL}
\bibdata{../TemplateLatex/AM_REF}
\bibcite{szablon_raportu}{1}
\bibcite{wymogi_raportu}{2}
\bibcite{bhp}{3}
\bibcite{astropi}{4}
\bibcite{sensehatproj}{5}
\bibcite{sensehatdoc}{6}
\bibcite{lsm9ds1}{7}
\bibcite{hts221}{8}
\bibcite{lps25h}{9}
\bibcite{attiny88mur}{10}
\bibcite{cat24c32}{11}
\bibcite{led2472g}{12}
\bibcite{sensehatapi}{13}
\bibcite{rtimulib}{14}
\bibcite{sensehatemu}{15}
\bibcite{trinket}{16}
\bibcite{pyjsonapi}{17}
\newlabel{LastPage}{{}{8}{}{page.8}{}}
\xdef\lastpage@lastpage{8}
\xdef\lastpage@lastpageHy{8}
