\relax 
\providecommand\hyper@newdestlabel[2]{}
\providecommand\HyperFirstAtBeginDocument{\AtBeginDocument}
\HyperFirstAtBeginDocument{\ifx\hyper@anchor\@undefined
\global\let\oldcontentsline\contentsline
\gdef\contentsline#1#2#3#4{\oldcontentsline{#1}{#2}{#3}}
\global\let\oldnewlabel\newlabel
\gdef\newlabel#1#2{\newlabelxx{#1}#2}
\gdef\newlabelxx#1#2#3#4#5#6{\oldnewlabel{#1}{{#2}{#3}}}
\AtEndDocument{\ifx\hyper@anchor\@undefined
\let\contentsline\oldcontentsline
\let\newlabel\oldnewlabel
\fi}
\fi}
\global\let\hyper@last\relax 
\gdef\HyperFirstAtBeginDocument#1{#1}
\providecommand\HyField@AuxAddToFields[1]{}
\providecommand\HyField@AuxAddToCoFields[2]{}
\bbl@cs{beforestart}
\babel@aux{english}{}
\citation{szablon_raportu}
\citation{wymogi_raportu_ENG}
\citation{bhp_ENG}
\citation{astropi}
\citation{sensehatproj}
\citation{sensehatdoc}
\@writefile{toc}{\contentsline {section}{\numberline {I.}Goal}{2}{section.1}\protected@file@percent }
\@writefile{toc}{\contentsline {section}{\numberline {II.}Final Task}{2}{section.2}\protected@file@percent }
\@writefile{toc}{\contentsline {section}{\numberline {III.}Prepare to course}{2}{section.3}\protected@file@percent }
\@writefile{toc}{\contentsline {subsection}{\numberline {a)}Know the safety rules}{2}{subsection.3.1}\protected@file@percent }
\citation{lsm9ds1}
\citation{hts221}
\citation{lps25h}
\citation{attiny88mur}
\citation{cat24c32}
\citation{led2472g}
\citation{sensehatapi}
\citation{rtimulib}
\@writefile{toc}{\contentsline {subsection}{\numberline {b)}Introduction to Sense Hat}{3}{subsection.3.2}\protected@file@percent }
\@writefile{toc}{\contentsline {subsection}{\numberline {c)}Sense Hat API}{3}{subsection.3.3}\protected@file@percent }
\citation{sensehatemu}
\citation{trinket}
\citation{pyjsonapi}
\@writefile{toc}{\contentsline {subsection}{\numberline {d)}Sense Hat Emulator}{4}{subsection.3.4}\protected@file@percent }
\@writefile{lof}{\contentsline {figure}{\numberline {1}{\ignorespaces  Sense Hat emulator available on the virtual machine. \relax }}{4}{figure.caption.1}\protected@file@percent }
\providecommand*\caption@xref[2]{\@setref\relax\@undefined{#1}}
\newlabel{fig:emu}{{1}{4}{Sense Hat emulator available on the virtual machine. \relax }{figure.caption.1}{}}
\@writefile{toc}{\contentsline {subsection}{\numberline {e)}JSON in Python}{4}{subsection.3.5}\protected@file@percent }
\newlabel{lst:jsonpy}{{1}{5}{An example of encoding data in JSON notation with Python}{lstlisting.1}{}}
\@writefile{lol}{\contentsline {lstlisting}{\numberline {1}An example of encoding data in JSON notation with Python.}{5}{lstlisting.1}\protected@file@percent }
\@writefile{lof}{\contentsline {figure}{\numberline {2}{\ignorespaces  Result of script from listing \ref  {lst:jsonpy}. execution. \relax }}{5}{figure.caption.2}\protected@file@percent }
\newlabel{fig:jsonpyresult}{{2}{5}{Result of script from listing \ref {lst:jsonpy}. execution. \relax }{figure.caption.2}{}}
\@writefile{toc}{\contentsline {section}{\numberline {IV.}Scenario for the class}{5}{section.4}\protected@file@percent }
\@writefile{toc}{\contentsline {subsection}{\numberline {a)}Teaching resources}{5}{subsection.4.1}\protected@file@percent }
\bibstyle{IEEEtran}
\bibdata{../TemplateLatex/AM_REF}
\bibcite{szablon_raportu}{1}
\@writefile{toc}{\contentsline {subsection}{\numberline {b)}Tasks}{6}{subsection.4.2}\protected@file@percent }
\newlabel{exercises}{{b)}{6}{Tasks}{subsection.4.2}{}}
\bibcite{wymogi_raportu_ENG}{2}
\bibcite{bhp_ENG}{3}
\bibcite{astropi}{4}
\bibcite{sensehatproj}{5}
\bibcite{sensehatdoc}{6}
\bibcite{lsm9ds1}{7}
\bibcite{hts221}{8}
\bibcite{lps25h}{9}
\bibcite{attiny88mur}{10}
\bibcite{cat24c32}{11}
\bibcite{led2472g}{12}
\bibcite{sensehatapi}{13}
\bibcite{rtimulib}{14}
\bibcite{sensehatemu}{15}
\bibcite{trinket}{16}
\bibcite{pyjsonapi}{17}
\newlabel{LastPage}{{}{7}{}{page.7}{}}
\xdef\lastpage@lastpage{7}
\xdef\lastpage@lastpageHy{7}
