\relax 
\providecommand\hyper@newdestlabel[2]{}
\providecommand\HyperFirstAtBeginDocument{\AtBeginDocument}
\HyperFirstAtBeginDocument{\ifx\hyper@anchor\@undefined
\global\let\oldcontentsline\contentsline
\gdef\contentsline#1#2#3#4{\oldcontentsline{#1}{#2}{#3}}
\global\let\oldnewlabel\newlabel
\gdef\newlabel#1#2{\newlabelxx{#1}#2}
\gdef\newlabelxx#1#2#3#4#5#6{\oldnewlabel{#1}{{#2}{#3}}}
\AtEndDocument{\ifx\hyper@anchor\@undefined
\let\contentsline\oldcontentsline
\let\newlabel\oldnewlabel
\fi}
\fi}
\global\let\hyper@last\relax 
\gdef\HyperFirstAtBeginDocument#1{#1}
\providecommand\HyField@AuxAddToFields[1]{}
\providecommand\HyField@AuxAddToCoFields[2]{}
\bbl@cs{beforestart}
\catcode `"\active 
\babel@aux{polish}{}
\citation{szablon_raportu}
\citation{wymogi_raportu}
\citation{bhp}
\citation{l01}
\@writefile{toc}{\contentsline {section}{\numberline {I.}Cel zajęć}{2}{section.1}\protected@file@percent }
\@writefile{toc}{\contentsline {section}{\numberline {II.}Polecenia końcowe}{2}{section.2}\protected@file@percent }
\@writefile{toc}{\contentsline {section}{\numberline {III.}Przygotowanie do zajęć}{2}{section.3}\protected@file@percent }
\@writefile{toc}{\contentsline {subsection}{\numberline {a)}Zapoznanie z przepisami BHP}{2}{subsection.3.1}\protected@file@percent }
\@writefile{toc}{\contentsline {subsection}{\numberline {b)}Wprowadzenie do formatu JSON}{2}{subsection.3.2}\protected@file@percent }
\citation{l02}
\citation{l03}
\newlabel{lst:lst1}{{1}{3}{Podstawa składni formatu JSON - obiekt w postaci pary atrybut - wartość}{lstlisting.1}{}}
\@writefile{lol}{\contentsline {lstlisting}{\numberline {1}Podstawa składni formatu JSON - obiekt w postaci pary atrybut - wartość.}{3}{lstlisting.1}\protected@file@percent }
\@writefile{toc}{\contentsline {subsection}{\numberline {c)}Składnia formatu JSON}{3}{subsection.3.3}\protected@file@percent }
\newlabel{lst:lst2}{{2}{3}{Adres Politechniki Poznańskiej w formacie JSON}{lstlisting.2}{}}
\@writefile{lol}{\contentsline {lstlisting}{\numberline {2}Adres Politechniki Poznańskiej w formacie JSON.}{3}{lstlisting.2}\protected@file@percent }
\newlabel{lst:lst3}{{3}{3}{Tablica zawierając nazwy wydziałów Politechniki Poznańskiej w formacie JSON}{lstlisting.3}{}}
\@writefile{lol}{\contentsline {lstlisting}{\numberline {3}Tablica zawierając nazwy wydziałów Politechniki Poznańskiej w formacie JSON.}{3}{lstlisting.3}\protected@file@percent }
\newlabel{lst:lst4}{{4}{4}{Zagnieżdżenie obiektów w formacie JSON na podstawie danych kontaktowych trzech wybranych wydziałów Politechniki Poznańskiej}{lstlisting.4}{}}
\@writefile{lol}{\contentsline {lstlisting}{\numberline {4}Zagnieżdżenie obiektów w formacie JSON na podstawie danych kontaktowych trzech wybranych wydziałów Politechniki Poznańskiej.}{4}{lstlisting.4}\protected@file@percent }
\@writefile{toc}{\contentsline {section}{\numberline {IV.}Scenariusz do zajęć}{4}{section.4}\protected@file@percent }
\@writefile{toc}{\contentsline {subsection}{\numberline {a)}Środki dydaktyczne}{4}{subsection.4.1}\protected@file@percent }
\@writefile{toc}{\contentsline {subsection}{\numberline {b)}Zadania do realizacji}{4}{subsection.4.2}\protected@file@percent }
\newlabel{exercises}{{b)}{4}{Zadania do realizacji}{subsection.4.2}{}}
\bibstyle{../TemplateLatex/IEEEtranPL}
\bibdata{../TemplateLatex/AM_REF}
\bibcite{szablon_raportu}{1}
\bibcite{wymogi_raportu}{2}
\bibcite{bhp}{3}
\bibcite{l01}{4}
\bibcite{l02}{5}
\bibcite{l03}{6}
\newlabel{LastPage}{{}{6}{}{page.6}{}}
\xdef\lastpage@lastpage{6}
\xdef\lastpage@lastpageHy{6}
