\relax 
\providecommand\hyper@newdestlabel[2]{}
\providecommand\HyperFirstAtBeginDocument{\AtBeginDocument}
\HyperFirstAtBeginDocument{\ifx\hyper@anchor\@undefined
\global\let\oldcontentsline\contentsline
\gdef\contentsline#1#2#3#4{\oldcontentsline{#1}{#2}{#3}}
\global\let\oldnewlabel\newlabel
\gdef\newlabel#1#2{\newlabelxx{#1}#2}
\gdef\newlabelxx#1#2#3#4#5#6{\oldnewlabel{#1}{{#2}{#3}}}
\AtEndDocument{\ifx\hyper@anchor\@undefined
\let\contentsline\oldcontentsline
\let\newlabel\oldnewlabel
\fi}
\fi}
\global\let\hyper@last\relax 
\gdef\HyperFirstAtBeginDocument#1{#1}
\providecommand\HyField@AuxAddToFields[1]{}
\providecommand\HyField@AuxAddToCoFields[2]{}
\bbl@cs{beforestart}
\babel@aux{english}{}
\citation{szablon_raportu}
\citation{wymogi_raportu_ENG}
\citation{bhp_ENG}
\citation{l01}
\citation{l02}
\@writefile{toc}{\contentsline {section}{\numberline {I.}Goal}{2}{section.1}\protected@file@percent }
\@writefile{toc}{\contentsline {section}{\numberline {II.}Final Task}{2}{section.2}\protected@file@percent }
\@writefile{toc}{\contentsline {section}{\numberline {III.}Prepare to course}{2}{section.3}\protected@file@percent }
\@writefile{toc}{\contentsline {subsection}{\numberline {a)}Know the safety rules}{2}{subsection.3.1}\protected@file@percent }
\@writefile{toc}{\contentsline {subsection}{\numberline {b)}Introduction to the JSON format}{2}{subsection.3.2}\protected@file@percent }
\citation{l03}
\newlabel{lst:lst1}{{1}{3}{Basics of JSON syntax - an object in the form of an attribute (key) / value pair}{lstlisting.1}{}}
\@writefile{lol}{\contentsline {lstlisting}{\numberline {1}Basics of JSON syntax - an object in the form of an attribute (key) / value pair.}{3}{lstlisting.1}\protected@file@percent }
\@writefile{toc}{\contentsline {subsection}{\numberline {c)}JSON syntax}{3}{subsection.3.3}\protected@file@percent }
\newlabel{lst:lst2}{{2}{3}{Poznan University of Technology address in JSON format}{lstlisting.2}{}}
\@writefile{lol}{\contentsline {lstlisting}{\numberline {2}Poznan University of Technology address in JSON format.}{3}{lstlisting.2}\protected@file@percent }
\newlabel{lst:lst3}{{3}{3}{An array containing the names of the faculties of Poznan University of Technology in JSON format}{lstlisting.3}{}}
\@writefile{lol}{\contentsline {lstlisting}{\numberline {3}An array containing the names of the faculties of Poznan University of Technology in JSON format.}{3}{lstlisting.3}\protected@file@percent }
\newlabel{lst:lst4}{{4}{4}{Nesting of objects in JSON format based on contact details of three selected faculties of Poznan University of Technology}{lstlisting.4}{}}
\@writefile{lol}{\contentsline {lstlisting}{\numberline {4}Nesting of objects in JSON format based on contact details of three selected faculties of Poznan University of Technology.}{4}{lstlisting.4}\protected@file@percent }
\@writefile{toc}{\contentsline {section}{\numberline {IV.}Scenario for the class}{4}{section.4}\protected@file@percent }
\@writefile{toc}{\contentsline {subsection}{\numberline {a)}Teaching resources}{4}{subsection.4.1}\protected@file@percent }
\@writefile{toc}{\contentsline {subsection}{\numberline {b)}Tasks}{4}{subsection.4.2}\protected@file@percent }
\newlabel{exercises}{{b)}{4}{Tasks}{subsection.4.2}{}}
\bibstyle{IEEEtran}
\bibdata{../TemplateLatex/AM_REF}
\bibcite{szablon_raportu}{1}
\bibcite{wymogi_raportu_ENG}{2}
\bibcite{bhp_ENG}{3}
\bibcite{l01}{4}
\bibcite{l02}{5}
\bibcite{l03}{6}
\newlabel{LastPage}{{}{6}{}{page.6}{}}
\xdef\lastpage@lastpage{6}
\xdef\lastpage@lastpageHy{6}
