\relax 
\providecommand\hyper@newdestlabel[2]{}
\providecommand\HyperFirstAtBeginDocument{\AtBeginDocument}
\HyperFirstAtBeginDocument{\ifx\hyper@anchor\@undefined
\global\let\oldcontentsline\contentsline
\gdef\contentsline#1#2#3#4{\oldcontentsline{#1}{#2}{#3}}
\global\let\oldnewlabel\newlabel
\gdef\newlabel#1#2{\newlabelxx{#1}#2}
\gdef\newlabelxx#1#2#3#4#5#6{\oldnewlabel{#1}{{#2}{#3}}}
\AtEndDocument{\ifx\hyper@anchor\@undefined
\let\contentsline\oldcontentsline
\let\newlabel\oldnewlabel
\fi}
\fi}
\global\let\hyper@last\relax 
\gdef\HyperFirstAtBeginDocument#1{#1}
\providecommand\HyField@AuxAddToFields[1]{}
\providecommand\HyField@AuxAddToCoFields[2]{}
\bbl@cs{beforestart}
\babel@aux{english}{}
\citation{szablon_raportu}
\citation{wymogi_raportu_ENG}
\citation{bhp_ENG}
\citation{jq}
\citation{jqlicense}
\citation{jqstat}
\@writefile{toc}{\contentsline {section}{\numberline {I.}Goal}{2}{section.1}\protected@file@percent }
\@writefile{toc}{\contentsline {section}{\numberline {II.}Final Task}{2}{section.2}\protected@file@percent }
\@writefile{toc}{\contentsline {section}{\numberline {III.}Prepare to course}{2}{section.3}\protected@file@percent }
\@writefile{toc}{\contentsline {subsection}{\numberline {a)}Know the safety rules}{2}{subsection.3.1}\protected@file@percent }
\citation{jqdoc}
\citation{ajax}
\citation{ajaxw3}
\citation{ajaxjacek}
\citation{ajaxjacek}
\@writefile{toc}{\contentsline {subsection}{\numberline {b)}Introduction to jQuery}{3}{subsection.3.2}\protected@file@percent }
\@writefile{lof}{\contentsline {figure}{\numberline {1}{\ignorespaces The structure of the jQuery syntax.\relax }}{3}{figure.caption.1}\protected@file@percent }
\providecommand*\caption@xref[2]{\@setref\relax\@undefined{#1}}
\newlabel{fig:jqsyntax}{{1}{3}{The structure of the jQuery syntax.\relax }{figure.caption.1}{}}
\@writefile{toc}{\contentsline {subsection}{\numberline {c)}Asynchronous JavaScript and XML}{3}{subsection.3.3}\protected@file@percent }
\citation{css}
\citation{cssdev}
\@writefile{lof}{\contentsline {figure}{\numberline {2}{\ignorespaces Web application model: classic vs. AJAX \cite  {ajaxjacek}. \relax }}{4}{figure.caption.2}\protected@file@percent }
\newlabel{fig:ajaxmodel}{{2}{4}{Web application model: classic vs. AJAX \cite {ajaxjacek}. \relax }{figure.caption.2}{}}
\@writefile{toc}{\contentsline {subsection}{\numberline {d)}Introduction to CSS}{4}{subsection.3.4}\protected@file@percent }
\newlabel{lst:css1}{{1}{4}{An example of the header of an HTML document with CSS}{lstlisting.1}{}}
\@writefile{lol}{\contentsline {lstlisting}{\numberline {1}An example of the header of an HTML document with CSS.}{4}{lstlisting.1}\protected@file@percent }
\citation{cssdoc}
\citation{bootstrap}
\@writefile{lof}{\contentsline {figure}{\numberline {3}{\ignorespaces CSS syntax structure.\relax }}{5}{figure.caption.3}\protected@file@percent }
\newlabel{fig:csssyntax}{{3}{5}{CSS syntax structure.\relax }{figure.caption.3}{}}
\@writefile{toc}{\contentsline {subsection}{\numberline {e)}CSS library example: Bootstrap}{5}{subsection.3.5}\protected@file@percent }
\@writefile{lof}{\contentsline {figure}{\numberline {4}{\ignorespaces An example of a web application with Bootstrap.\relax }}{5}{figure.caption.4}\protected@file@percent }
\newlabel{fig:cssexample}{{4}{5}{An example of a web application with Bootstrap.\relax }{figure.caption.4}{}}
\@writefile{toc}{\contentsline {section}{\numberline {IV.}Scenario for the class}{5}{section.4}\protected@file@percent }
\@writefile{toc}{\contentsline {subsection}{\numberline {a)}Teaching resources}{5}{subsection.4.1}\protected@file@percent }
\bibstyle{IEEEtranPL}
\bibdata{../TemplateLatex/AM_REF}
\bibcite{szablon_raportu}{1}
\bibcite{wymogi_raportu_ENG}{2}
\bibcite{bhp_ENG}{3}
\bibcite{jq}{4}
\bibcite{jqlicense}{5}
\bibcite{jqstat}{6}
\bibcite{jqdoc}{7}
\bibcite{ajax}{8}
\bibcite{ajaxw3}{9}
\bibcite{ajaxjacek}{10}
\bibcite{css}{11}
\bibcite{cssdev}{12}
\bibcite{cssdoc}{13}
\@writefile{toc}{\contentsline {subsection}{\numberline {b)}Tasks}{6}{subsection.4.2}\protected@file@percent }
\newlabel{exercises}{{b)}{6}{Tasks}{subsection.4.2}{}}
\newlabel{LastPage}{{}{6}{}{page.6}{}}
\xdef\lastpage@lastpage{6}
\xdef\lastpage@lastpageHy{6}
