% Generated by IEEEtran.bst, version: 1.14 (2015/08/26)
\begin{thebibliography}{10}
\providecommand{\url}[1]{#1}
\csname url@samestyle\endcsname
\providecommand{\newblock}{\relax}
\providecommand{\bibinfo}[2]{#2}
\providecommand{\BIBentrySTDinterwordspacing}{\spaceskip=0pt\relax}
\providecommand{\BIBentryALTinterwordstretchfactor}{4}
\providecommand{\BIBentryALTinterwordspacing}{\spaceskip=\fontdimen2\font plus
\BIBentryALTinterwordstretchfactor\fontdimen3\font minus
  \fontdimen4\font\relax}
\providecommand{\BIBforeignlanguage}[2]{{%
\expandafter\ifx\csname l@#1\endcsname\relax
\typeout{** WARNING: IEEEtran.bst: No hyphenation pattern has been}%
\typeout{** loaded for the language `#1'. Using the pattern for}%
\typeout{** the default language instead.}%
\else
\language=\csname l@#1\endcsname
\fi
#2}}
\providecommand{\BIBdecl}{\relax}
\BIBdecl

\bibitem{szablon_raportu}
\BIBentryALTinterwordspacing
``Szablon sprawozdania.'' [online]. Pobrano:
  \url{http://zsep.cie.put.poznan.pl/materialy-dydaktyczne/MD/Szablony/Szablon-sprawozdania/}
\BIBentrySTDinterwordspacing

\bibitem{wymogi_raportu}
\BIBentryALTinterwordspacing
``Wymogi sprawozdania.'' [online]. Pobrano:
  \url{http://zsep.cie.put.poznan.pl/index.php/materialy-dydaktyczne/MD/AiR-stac.-in%C5%BC.-s5/Systemy-mikroprocesorowe/Laboratorium/Instrukcje---STM32/L00-Wymogi-sprawozdania/}
\BIBentrySTDinterwordspacing

\bibitem{bhp}
\BIBentryALTinterwordspacing
``Regulaminy porządkowe, instrukcje {BHP}.'' [online]. Pobrano:
  \url{http://zsep.cie.put.poznan.pl/materialy-dydaktyczne/MD/Regulaminy-porz%C4%85dkowe-instrukcje-BHP/}
\BIBentrySTDinterwordspacing

\bibitem{rpidoc}
\BIBentryALTinterwordspacing
``Raspberry {Pi} {Documentation}.'' [online]. Pobrano:
  \url{https://www.raspberrypi.org/documentation/}
\BIBentrySTDinterwordspacing

\bibitem{rpicomm}
\BIBentryALTinterwordspacing
``\BIBforeignlanguage{en-GB}{Raspberry {Pi} {Community} - {Projects}, {Blogs},
  and more},'' library Catalog: www.raspberrypi.org. [online]. Pobrano:
  \url{https://www.raspberrypi.org/community/}
\BIBentrySTDinterwordspacing

\bibitem{ifconfig}
\BIBentryALTinterwordspacing
``ifconfig(8) - {Linux} manual page.'' [online]. Pobrano:
  \url{http://man7.org/linux/man-pages/man8/ifconfig.8.html}
\BIBentrySTDinterwordspacing

\bibitem{raspbian}
\BIBentryALTinterwordspacing
``\BIBforeignlanguage{en-GB}{Download {Raspbian} for {Raspberry} {Pi}},''
  library Catalog: www.raspberrypi.org. [online]. Pobrano:
  \url{https://www.raspberrypi.org/downloads/raspbian/}
\BIBentrySTDinterwordspacing

\bibitem{bashdoc}
\BIBentryALTinterwordspacing
``\BIBforeignlanguage{en}{Bash documentation — {DevDocs}},'' library Catalog:
  devdocs.io. [online]. Pobrano: \url{https://devdocs.io/bash/}
\BIBentrySTDinterwordspacing

\bibitem{pythondoc}
\BIBentryALTinterwordspacing
``Python 3.5.9 {Documentation}.'' [online]. Pobrano:
  \url{https://docs.python.org/3.5/}
\BIBentrySTDinterwordspacing

\bibitem{c11doc}
\BIBentryALTinterwordspacing
``C++11 - cppreference.com.'' [online]. Pobrano:
  \url{https://en.cppreference.com/w/cpp/11}
\BIBentrySTDinterwordspacing

\bibitem{gccdoc}
\BIBentryALTinterwordspacing
``{GCC} online documentation - {GNU} {Project} - {Free} {Software} {Foundation}
  ({FSF}).'' [online]. Pobrano: \url{https://gcc.gnu.org/onlinedocs/}
\BIBentrySTDinterwordspacing

\bibitem{getoptdoc}
\BIBentryALTinterwordspacing
``getopt(1) - {Linux} manual page.'' [online]. Pobrano:
  \url{http://man7.org/linux/man-pages/man1/getopt.1.html}
\BIBentrySTDinterwordspacing

\bibitem{bcdoc}
\BIBentryALTinterwordspacing
``bc {Command} {Manual}.'' [online]. Pobrano:
  \url{https://www.gnu.org/software/bc/manual/html_mono/bc.html}
\BIBentrySTDinterwordspacing

\bibitem{getoptpydoc}
\BIBentryALTinterwordspacing
``15.6. getopt — {C}-style parser for command line options — {Python}
  2.7.17 documentation.'' [online]. Pobrano:
  \url{https://docs.python.org/2/library/getopt.html}
\BIBentrySTDinterwordspacing

\bibitem{wiringpi}
\BIBentryALTinterwordspacing
``\BIBforeignlanguage{en-US}{Reference {\textbar} {Wiring} {Pi}},'' library
  Catalog: wiringpi.com. [online]. Pobrano:
  \url{http://wiringpi.com/reference/}
\BIBentrySTDinterwordspacing

\bibitem{lighttpd}
\BIBentryALTinterwordspacing
``Docs - {Lighttpd} - lighty labs.'' [online]. Pobrano:
  \url{https://redmine.lighttpd.net/projects/lighttpd/wiki/Docs}
\BIBentrySTDinterwordspacing

\end{thebibliography}
