\relax 
\providecommand\hyper@newdestlabel[2]{}
\providecommand\HyperFirstAtBeginDocument{\AtBeginDocument}
\HyperFirstAtBeginDocument{\ifx\hyper@anchor\@undefined
\global\let\oldcontentsline\contentsline
\gdef\contentsline#1#2#3#4{\oldcontentsline{#1}{#2}{#3}}
\global\let\oldnewlabel\newlabel
\gdef\newlabel#1#2{\newlabelxx{#1}#2}
\gdef\newlabelxx#1#2#3#4#5#6{\oldnewlabel{#1}{{#2}{#3}}}
\AtEndDocument{\ifx\hyper@anchor\@undefined
\let\contentsline\oldcontentsline
\let\newlabel\oldnewlabel
\fi}
\fi}
\global\let\hyper@last\relax 
\gdef\HyperFirstAtBeginDocument#1{#1}
\providecommand\HyField@AuxAddToFields[1]{}
\providecommand\HyField@AuxAddToCoFields[2]{}
\bbl@cs{beforestart}
\catcode `"\active 
\babel@aux{polish}{}
\citation{szablon_raportu}
\citation{wymogi_raportu}
\citation{bhp}
\@writefile{toc}{\contentsline {section}{\numberline {I.}Cel zajęć}{2}{section.1}\protected@file@percent }
\@writefile{toc}{\contentsline {section}{\numberline {II.}Polecenia końcowe}{2}{section.2}\protected@file@percent }
\@writefile{toc}{\contentsline {section}{\numberline {III.}Przygotowanie do zajęć}{2}{section.3}\protected@file@percent }
\@writefile{toc}{\contentsline {subsection}{\numberline {a)}Zapoznanie z przepisami BHP}{2}{subsection.3.1}\protected@file@percent }
\citation{rpidoc}
\citation{rpicomm}
\citation{ifconfig}
\citation{raspbian}
\@writefile{toc}{\contentsline {subsection}{\numberline {b)}Wprowadzenie do Raspberry Pi}{3}{subsection.3.2}\protected@file@percent }
\@writefile{toc}{\contentsline {subsection}{\numberline {c)}Konfiguracja interfejsów sieciowych}{3}{subsection.3.3}\protected@file@percent }
\newlabel{lst:dhcpcdconf}{{1}{3}{Plik /etc/dhcpcd.conf - statyczne IP interfejsu \textbf {eth0}}{lstlisting.1}{}}
\@writefile{lol}{\contentsline {lstlisting}{\numberline {1}Plik /etc/dhcpcd.conf - statyczne IP interfejsu \textbf  {eth0}}{3}{lstlisting.1}\protected@file@percent }
\newlabel{lst:wpa}{{2}{3}{Plik /etc/wpa\_supplicant/wpa\_supplicant.conf - SSID i hasło sieci bezprzewodowej}{lstlisting.2}{}}
\@writefile{lol}{\contentsline {lstlisting}{\numberline {2}Plik /etc/wpa\_supplicant/wpa\_supplicant.conf - SSID i hasło sieci bezprzewodowej}{3}{lstlisting.2}\protected@file@percent }
\citation{bashdoc}
\citation{pythondoc}
\citation{c11doc}
\citation{gccdoc}
\citation{getoptdoc}
\@writefile{toc}{\contentsline {subsection}{\numberline {d)}Aplikacje wiersza poleceń}{4}{subsection.3.4}\protected@file@percent }
\@writefile{toc}{\contentsline {subsubsection}{\numberline {1.}bash}{4}{subsubsection.3.4.1}\protected@file@percent }
\newlabel{lst:bash1}{{3}{4}{Bash ,,Hello World''}{lstlisting.3}{}}
\@writefile{lol}{\contentsline {lstlisting}{\numberline {3}Bash ,,Hello World''.}{4}{lstlisting.3}\protected@file@percent }
\newlabel{lst:bash2}{{4}{4}{Bash - przykład wykorzystania funckji \textit {getopt}}{lstlisting.4}{}}
\@writefile{lol}{\contentsline {lstlisting}{\numberline {4}Bash - przykład wykorzystania funckji \textit  {getopt}.}{4}{lstlisting.4}\protected@file@percent }
\citation{bcdoc}
\citation{getoptpydoc}
\newlabel{lst:bashbc}{{5}{5}{Bash - przykład wykorzystania kalkulatora \lstinline {bc} }{lstlisting.5}{}}
\@writefile{lol}{\contentsline {lstlisting}{\numberline {5}Bash - przykład wykorzystania kalkulatora \lstinline {bc} .}{5}{lstlisting.5}\protected@file@percent }
\@writefile{toc}{\contentsline {subsubsection}{\numberline {2.}Python}{5}{subsubsection.3.4.2}\protected@file@percent }
\citation{getoptdoc}
\newlabel{lst:py1}{{6}{6}{Python ,,Hello World''}{lstlisting.6}{}}
\@writefile{lol}{\contentsline {lstlisting}{\numberline {6}Python ,,Hello World''.}{6}{lstlisting.6}\protected@file@percent }
\newlabel{lst:py2}{{7}{6}{Python - przykład wykorzystania funckji \textit {getopt}}{lstlisting.7}{}}
\@writefile{lol}{\contentsline {lstlisting}{\numberline {7}Python - przykład wykorzystania funckji \textit  {getopt}.}{6}{lstlisting.7}\protected@file@percent }
\@writefile{toc}{\contentsline {subsubsection}{\numberline {3.}C++}{6}{subsubsection.3.4.3}\protected@file@percent }
\newlabel{lst:cpp1}{{8}{7}{C++ ,,Hello World''}{lstlisting.8}{}}
\@writefile{lol}{\contentsline {lstlisting}{\numberline {8}C++ ,,Hello World''.}{7}{lstlisting.8}\protected@file@percent }
\newlabel{lst:gcc1}{{9}{7}{Kompilacja programu ,,Hello World'' za pomcą g++}{lstlisting.9}{}}
\@writefile{lol}{\contentsline {lstlisting}{\numberline {9}Kompilacja programu ,,Hello World'' za pomcą g++.}{7}{lstlisting.9}\protected@file@percent }
\newlabel{lst:cpp2}{{10}{7}{C++ - przykład wykorzystania funckji \textit {getopt}}{lstlisting.10}{}}
\@writefile{lol}{\contentsline {lstlisting}{\numberline {10}C++ - przykład wykorzystania funckji \textit  {getopt}.}{7}{lstlisting.10}\protected@file@percent }
\citation{wiringpi}
\@writefile{toc}{\contentsline {subsection}{\numberline {e)}Obsługa peryferiów}{8}{subsection.3.5}\protected@file@percent }
\@writefile{lof}{\contentsline {figure}{\numberline {1}{\ignorespaces Pinout złącza Raspberry Pi. \relax }}{8}{figure.caption.1}\protected@file@percent }
\providecommand*\caption@xref[2]{\@setref\relax\@undefined{#1}}
\newlabel{fig:pinout}{{1}{8}{Pinout złącza Raspberry Pi. \relax }{figure.caption.1}{}}
\@writefile{lof}{\contentsline {figure}{\numberline {2}{\ignorespaces Pinout złącza Raspberry Pi. \relax }}{9}{figure.caption.2}\protected@file@percent }
\newlabel{fig:sch}{{2}{9}{Pinout złącza Raspberry Pi. \relax }{figure.caption.2}{}}
\@writefile{toc}{\contentsline {subsubsection}{\numberline {1.}GPIO}{9}{subsubsection.3.5.1}\protected@file@percent }
\newlabel{lst:gpiosh1}{{11}{9}{Obsługa GPIO za pomocą powłoki systemowej - inicjalizacja wyjścia}{lstlisting.11}{}}
\@writefile{lol}{\contentsline {lstlisting}{\numberline {11}Obsługa GPIO za pomocą powłoki systemowej - inicjalizacja wyjścia.}{9}{lstlisting.11}\protected@file@percent }
\newlabel{lst:gpiosh2}{{12}{9}{Obsługa GPIO za pomocą powłoki systemowej - zapis 1}{lstlisting.12}{}}
\@writefile{lol}{\contentsline {lstlisting}{\numberline {12}Obsługa GPIO za pomocą powłoki systemowej - zapis 1.}{9}{lstlisting.12}\protected@file@percent }
\newlabel{lst:gpiosh3}{{13}{10}{Obsługa GPIO za pomocą powłoki systemowej - zapis 0}{lstlisting.13}{}}
\@writefile{lol}{\contentsline {lstlisting}{\numberline {13}Obsługa GPIO za pomocą powłoki systemowej - zapis 0.}{10}{lstlisting.13}\protected@file@percent }
\newlabel{lst:gpiosh4}{{14}{10}{Obsługa GPIO za pomocą powłoki systemowej - deinicjalizacja}{lstlisting.14}{}}
\@writefile{lol}{\contentsline {lstlisting}{\numberline {14}Obsługa GPIO za pomocą powłoki systemowej - deinicjalizacja.}{10}{lstlisting.14}\protected@file@percent }
\newlabel{lst:gpiosh5}{{15}{10}{Obsługa GPIO za pomocą powłoki systemowej - przykład prostej aplikacji: zmiana stanu diody ze stałym krokiem}{lstlisting.15}{}}
\@writefile{lol}{\contentsline {lstlisting}{\numberline {15}Obsługa GPIO za pomocą powłoki systemowej - przykład prostej aplikacji: zmiana stanu diody ze stałym krokiem.}{10}{lstlisting.15}\protected@file@percent }
\newlabel{lst:gpiosh6}{{16}{10}{Obsługa GPIO za pomocą powłoki systemowej - inicjalizacja wejścia}{lstlisting.16}{}}
\@writefile{lol}{\contentsline {lstlisting}{\numberline {16}Obsługa GPIO za pomocą powłoki systemowej - inicjalizacja wejścia.}{10}{lstlisting.16}\protected@file@percent }
\newlabel{lst:gpiosh7}{{17}{11}{Obsługa GPIO za pomocą powłoki systemowej - odczyt}{lstlisting.17}{}}
\@writefile{lol}{\contentsline {lstlisting}{\numberline {17}Obsługa GPIO za pomocą powłoki systemowej - odczyt.}{11}{lstlisting.17}\protected@file@percent }
\newlabel{lst:gpiosh8}{{18}{11}{Obsługa GPIO za pomocą powłoki systemowej - przykład prostej aplikacji: detekcja zbocza opadającego}{lstlisting.18}{}}
\@writefile{lol}{\contentsline {lstlisting}{\numberline {18}Obsługa GPIO za pomocą powłoki systemowej - przykład prostej aplikacji: detekcja zbocza opadającego.}{11}{lstlisting.18}\protected@file@percent }
\newlabel{lst:gpiopy1}{{19}{11}{Obsługa GPIO z użyciem języka Python - obsługa wyjścia}{lstlisting.19}{}}
\@writefile{lol}{\contentsline {lstlisting}{\numberline {19}Obsługa GPIO z użyciem języka Python - obsługa wyjścia.}{11}{lstlisting.19}\protected@file@percent }
\newlabel{lst:gpiopy2}{{20}{12}{OObsługa GPIO z użyciem języka Python - obsługa wejścia}{lstlisting.20}{}}
\@writefile{lol}{\contentsline {lstlisting}{\numberline {20}OObsługa GPIO z użyciem języka Python - obsługa wejścia.}{12}{lstlisting.20}\protected@file@percent }
\newlabel{lst:gpiopy3}{{21}{13}{Obsługa GPIO z użyciem języka Python - zmiana stanu wyjścia po detekcji zbocza opadającego na wejściu}{lstlisting.21}{}}
\@writefile{lol}{\contentsline {lstlisting}{\numberline {21}Obsługa GPIO z użyciem języka Python - zmiana stanu wyjścia po detekcji zbocza opadającego na wejściu.}{13}{lstlisting.21}\protected@file@percent }
\@writefile{lof}{\contentsline {figure}{\numberline {3}{\ignorespaces  Numeracja złącza wg WiringPi - model 3B. \relax }}{14}{figure.caption.3}\protected@file@percent }
\newlabel{fig:wpi}{{3}{14}{Numeracja złącza wg WiringPi - model 3B. \relax }{figure.caption.3}{}}
\newlabel{lst:gpiocpp1}{{22}{14}{Obsługa GPIO z użyciem języka C++ - obsługa wyjścia}{lstlisting.22}{}}
\@writefile{lol}{\contentsline {lstlisting}{\numberline {22}Obsługa GPIO z użyciem języka C++ - obsługa wyjścia.}{14}{lstlisting.22}\protected@file@percent }
\newlabel{lst:gpiocpp2}{{23}{15}{OObsługa GPIO z użyciem języka C++ - obsługa wejścia}{lstlisting.23}{}}
\@writefile{lol}{\contentsline {lstlisting}{\numberline {23}OObsługa GPIO z użyciem języka C++ - obsługa wejścia.}{15}{lstlisting.23}\protected@file@percent }
\newlabel{lst:gpiocpp3}{{24}{16}{Obsługa GPIO z użyciem języka C++ - zmiana stanu wyjścia po detekcji zbocza opadającego na wejściu}{lstlisting.24}{}}
\@writefile{lol}{\contentsline {lstlisting}{\numberline {24}Obsługa GPIO z użyciem języka C++ - zmiana stanu wyjścia po detekcji zbocza opadającego na wejściu.}{16}{lstlisting.24}\protected@file@percent }
\@writefile{toc}{\contentsline {subsubsection}{\numberline {2.}PWM}{17}{subsubsection.3.5.2}\protected@file@percent }
\newlabel{lst:pwmsh1}{{25}{17}{Obsługa PWM za pomocą powłoki systemowej i aplikacji \textbf {gpio} - ustawienie wypełnienia}{lstlisting.25}{}}
\@writefile{lol}{\contentsline {lstlisting}{\numberline {25}Obsługa PWM za pomocą powłoki systemowej i aplikacji \textbf  {gpio} - ustawienie wypełnienia.}{17}{lstlisting.25}\protected@file@percent }
\newlabel{lst:pwmsh2}{{26}{18}{Obsługa PWM za pomocą powłoki systemowej i aplikacji \textbf {gpio} - płynna zmiana wypełnienia}{lstlisting.26}{}}
\@writefile{lol}{\contentsline {lstlisting}{\numberline {26}Obsługa PWM za pomocą powłoki systemowej i aplikacji \textbf  {gpio} - płynna zmiana wypełnienia.}{18}{lstlisting.26}\protected@file@percent }
\newlabel{lst:pwmpy1}{{27}{19}{Obsługa PWM za pomocą języka Python - ustawienie wypełnienia}{lstlisting.27}{}}
\@writefile{lol}{\contentsline {lstlisting}{\numberline {27}Obsługa PWM za pomocą języka Python - ustawienie wypełnienia.}{19}{lstlisting.27}\protected@file@percent }
\newlabel{lst:pwmpy2}{{28}{19}{Obsługa PWM za pomocą języka Python - - płynna zmiana wypełnienia}{lstlisting.28}{}}
\@writefile{lol}{\contentsline {lstlisting}{\numberline {28}Obsługa PWM za pomocą języka Python - - płynna zmiana wypełnienia.}{19}{lstlisting.28}\protected@file@percent }
\newlabel{lst:pwmcpp1}{{29}{20}{Obsługa PWM za pomocą języka C++ i biblioteki WiringPi - ustawienie wypełnienia}{lstlisting.29}{}}
\@writefile{lol}{\contentsline {lstlisting}{\numberline {29}Obsługa PWM za pomocą języka C++ i biblioteki WiringPi - ustawienie wypełnienia.}{20}{lstlisting.29}\protected@file@percent }
\newlabel{lst:pwmcpp2}{{30}{21}{Obsługa PWM za pomocą języka C++ i biblioteki WiringP - płynna zmiana wypełnienia}{lstlisting.30}{}}
\@writefile{lol}{\contentsline {lstlisting}{\numberline {30}Obsługa PWM za pomocą języka C++ i biblioteki WiringP - płynna zmiana wypełnienia.}{21}{lstlisting.30}\protected@file@percent }
\citation{lighttpd}
\@writefile{toc}{\contentsline {subsection}{\numberline {f)}Konfiguracja serwera Lighttpd}{22}{subsection.3.6}\protected@file@percent }
\newlabel{lst:lighttpdconf}{{31}{22}{Domyślna zawartość pliku konfiguracyjnego /etc/lighttpd/lighttpd.conf}{lstlisting.31}{}}
\@writefile{lol}{\contentsline {lstlisting}{\numberline {31}Domyślna zawartość pliku konfiguracyjnego /etc/lighttpd/lighttpd.conf}{22}{lstlisting.31}\protected@file@percent }
\newlabel{lst:php1}{{32}{24}{Przykład skryptu PHP sterującego diodą świecącą (via GPIO) za pośrednictwem skryptu powłoki systemowej}{lstlisting.32}{}}
\@writefile{lol}{\contentsline {lstlisting}{\numberline {32}Przykład skryptu PHP sterującego diodą świecącą (via GPIO) za pośrednictwem skryptu powłoki systemowej.}{24}{lstlisting.32}\protected@file@percent }
\@writefile{lof}{\contentsline {figure}{\numberline {4}{\ignorespaces  Odpowiedź serwera - skrypt sterujący stanem diody świecącej (via GPIO) \relax }}{24}{figure.caption.4}\protected@file@percent }
\newlabel{fig:ff}{{4}{24}{Odpowiedź serwera - skrypt sterujący stanem diody świecącej (via GPIO) \relax }{figure.caption.4}{}}
\@writefile{toc}{\contentsline {section}{\numberline {IV.}Scenariusz do zajęć}{25}{section.4}\protected@file@percent }
\@writefile{toc}{\contentsline {subsection}{\numberline {a)}Środki dydaktyczne}{25}{subsection.4.1}\protected@file@percent }
\@writefile{toc}{\contentsline {subsection}{\numberline {b)}Zadania do realizacji}{25}{subsection.4.2}\protected@file@percent }
\newlabel{exercises}{{b)}{25}{Zadania do realizacji}{subsection.4.2}{}}
\@writefile{toc}{\contentsline {subsubsection}{\numberline {1.}Konfiguracja interfejsu sieciowego.}{25}{subsubsection.4.2.1}\protected@file@percent }
\@writefile{toc}{\contentsline {subsubsection}{\numberline {2.}Aplikacje wiersza poleceń.}{26}{subsubsection.4.2.2}\protected@file@percent }
\@writefile{toc}{\contentsline {subsubsection}{\numberline {3.}Obsługa peryferiów.}{26}{subsubsection.4.2.3}\protected@file@percent }
\bibstyle{../TemplateLatex/IEEEtranPL}
\bibdata{../TemplateLatex/AM_REF}
\bibcite{szablon_raportu}{1}
\bibcite{wymogi_raportu}{2}
\bibcite{bhp}{3}
\bibcite{rpidoc}{4}
\bibcite{rpicomm}{5}
\bibcite{ifconfig}{6}
\bibcite{raspbian}{7}
\bibcite{bashdoc}{8}
\bibcite{pythondoc}{9}
\bibcite{c11doc}{10}
\bibcite{gccdoc}{11}
\bibcite{getoptdoc}{12}
\bibcite{bcdoc}{13}
\bibcite{getoptpydoc}{14}
\bibcite{wiringpi}{15}
\bibcite{lighttpd}{16}
\@writefile{toc}{\contentsline {subsubsection}{\numberline {4.}Aplikacje serwera.}{27}{subsubsection.4.2.4}\protected@file@percent }
\newlabel{LastPage}{{}{28}{}{page.28}{}}
\xdef\lastpage@lastpage{28}
\xdef\lastpage@lastpageHy{28}
