\relax 
\providecommand\hyper@newdestlabel[2]{}
\providecommand\HyperFirstAtBeginDocument{\AtBeginDocument}
\HyperFirstAtBeginDocument{\ifx\hyper@anchor\@undefined
\global\let\oldcontentsline\contentsline
\gdef\contentsline#1#2#3#4{\oldcontentsline{#1}{#2}{#3}}
\global\let\oldnewlabel\newlabel
\gdef\newlabel#1#2{\newlabelxx{#1}#2}
\gdef\newlabelxx#1#2#3#4#5#6{\oldnewlabel{#1}{{#2}{#3}}}
\AtEndDocument{\ifx\hyper@anchor\@undefined
\let\contentsline\oldcontentsline
\let\newlabel\oldnewlabel
\fi}
\fi}
\global\let\hyper@last\relax 
\gdef\HyperFirstAtBeginDocument#1{#1}
\providecommand\HyField@AuxAddToFields[1]{}
\providecommand\HyField@AuxAddToCoFields[2]{}
\bbl@cs{beforestart}
\babel@aux{english}{}
\citation{szablon_raportu}
\citation{wymogi_raportu_ENG}
\citation{bhp_ENG}
\@writefile{toc}{\contentsline {section}{\numberline {I.}Goal}{2}{section.1}\protected@file@percent }
\@writefile{toc}{\contentsline {section}{\numberline {II.}Final Task}{2}{section.2}\protected@file@percent }
\@writefile{toc}{\contentsline {section}{\numberline {III.}Prepare to course}{2}{section.3}\protected@file@percent }
\@writefile{toc}{\contentsline {subsection}{\numberline {a)}Know the safety rules}{2}{subsection.3.1}\protected@file@percent }
\citation{rpidoc}
\citation{rpicomm}
\citation{ifconfig}
\citation{raspbian}
\@writefile{toc}{\contentsline {subsection}{\numberline {b)}Introduction to Raspberry Pi}{3}{subsection.3.2}\protected@file@percent }
\@writefile{toc}{\contentsline {subsection}{\numberline {c)}Configuration of network interfaces}{3}{subsection.3.3}\protected@file@percent }
\newlabel{lst:dhcpcdconf}{{1}{3}{File /etc/dhcpcd.conf - static IP of \textbf {eth0} interface}{lstlisting.1}{}}
\@writefile{lol}{\contentsline {lstlisting}{\numberline {1}File /etc/dhcpcd.conf - static IP of \textbf  {eth0} interface.}{3}{lstlisting.1}\protected@file@percent }
\newlabel{lst:wpa}{{2}{3}{File /etc/wpa\_supplicant/wpa\_supplicant.conf - Wireless network SSID and password in room M323}{lstlisting.2}{}}
\@writefile{lol}{\contentsline {lstlisting}{\numberline {2}File /etc/wpa\_supplicant/wpa\_supplicant.conf - Wireless network SSID and password in room M323.}{3}{lstlisting.2}\protected@file@percent }
\citation{bashdoc}
\citation{pythondoc}
\citation{c11doc}
\citation{gccdoc}
\citation{getoptdoc}
\@writefile{toc}{\contentsline {subsection}{\numberline {d)}Command line applications (CLIs)}{4}{subsection.3.4}\protected@file@percent }
\@writefile{toc}{\contentsline {subsubsection}{\numberline {1.}bash}{4}{subsubsection.3.4.1}\protected@file@percent }
\newlabel{lst:bash1}{{3}{4}{Bash ,,Hello World''}{lstlisting.3}{}}
\@writefile{lol}{\contentsline {lstlisting}{\numberline {3}Bash ,,Hello World''.}{4}{lstlisting.3}\protected@file@percent }
\newlabel{lst:bash2}{{4}{4}{Bash - \textit {getopt} function example}{lstlisting.4}{}}
\@writefile{lol}{\contentsline {lstlisting}{\numberline {4}Bash - \textit  {getopt} function example.}{4}{lstlisting.4}\protected@file@percent }
\citation{bcdoc}
\citation{getoptpydoc}
\newlabel{lst:bashbc}{{5}{5}{Bash - \lstinline {bc} calculator app example}{lstlisting.5}{}}
\@writefile{lol}{\contentsline {lstlisting}{\numberline {5}Bash - \lstinline {bc} calculator app example.}{5}{lstlisting.5}\protected@file@percent }
\@writefile{toc}{\contentsline {subsubsection}{\numberline {2.}Python}{5}{subsubsection.3.4.2}\protected@file@percent }
\citation{getoptdoc}
\newlabel{lst:py1}{{6}{6}{Python ,,Hello World''}{lstlisting.6}{}}
\@writefile{lol}{\contentsline {lstlisting}{\numberline {6}Python ,,Hello World''.}{6}{lstlisting.6}\protected@file@percent }
\newlabel{lst:py2}{{7}{6}{Python - \textit {getopt} function example}{lstlisting.7}{}}
\@writefile{lol}{\contentsline {lstlisting}{\numberline {7}Python - \textit  {getopt} function example.}{6}{lstlisting.7}\protected@file@percent }
\@writefile{toc}{\contentsline {subsubsection}{\numberline {3.}C++}{6}{subsubsection.3.4.3}\protected@file@percent }
\newlabel{lst:cpp1}{{8}{7}{C++ ,,Hello World''}{lstlisting.8}{}}
\@writefile{lol}{\contentsline {lstlisting}{\numberline {8}C++ ,,Hello World''.}{7}{lstlisting.8}\protected@file@percent }
\newlabel{lst:gcc1}{{9}{7}{Build ,,Hello World'' using g++ compiler}{lstlisting.9}{}}
\@writefile{lol}{\contentsline {lstlisting}{\numberline {9}Build ,,Hello World'' using g++ compiler.}{7}{lstlisting.9}\protected@file@percent }
\newlabel{lst:cpp2}{{10}{7}{C++ - \textit {getopt} function example}{lstlisting.10}{}}
\@writefile{lol}{\contentsline {lstlisting}{\numberline {10}C++ - \textit  {getopt} function example.}{7}{lstlisting.10}\protected@file@percent }
\citation{wiringpi}
\@writefile{toc}{\contentsline {subsection}{\numberline {e)}Peripheral devices}{8}{subsection.3.5}\protected@file@percent }
\@writefile{lof}{\contentsline {figure}{\numberline {1}{\ignorespaces  Raspberry Pi low-level socket pinout. \relax }}{8}{figure.caption.1}\protected@file@percent }
\providecommand*\caption@xref[2]{\@setref\relax\@undefined{#1}}
\newlabel{fig:pinout}{{1}{8}{Raspberry Pi low-level socket pinout. \relax }{figure.caption.1}{}}
\@writefile{lof}{\contentsline {figure}{\numberline {2}{\ignorespaces  Electrical diagram of external elements. \relax }}{9}{figure.caption.2}\protected@file@percent }
\newlabel{fig:sch}{{2}{9}{Electrical diagram of external elements. \relax }{figure.caption.2}{}}
\@writefile{toc}{\contentsline {subsubsection}{\numberline {1.}GPIO}{9}{subsubsection.3.5.1}\protected@file@percent }
\newlabel{lst:gpiosh1}{{11}{9}{GPIO operations using bash system shell - output initialization}{lstlisting.11}{}}
\@writefile{lol}{\contentsline {lstlisting}{\numberline {11}GPIO operations using bash system shell - output initialization.}{9}{lstlisting.11}\protected@file@percent }
\newlabel{lst:gpiosh2}{{12}{9}{GPIO operations using bash system shell - write 1 (\textit {high})}{lstlisting.12}{}}
\@writefile{lol}{\contentsline {lstlisting}{\numberline {12}GPIO operations using bash system shell - write 1 (\textit  {high}).}{9}{lstlisting.12}\protected@file@percent }
\newlabel{lst:gpiosh3}{{13}{10}{GPIO operations using bash system shell - write 0 (\textit {high})}{lstlisting.13}{}}
\@writefile{lol}{\contentsline {lstlisting}{\numberline {13}GPIO operations using bash system shell - write 0 (\textit  {high}).}{10}{lstlisting.13}\protected@file@percent }
\newlabel{lst:gpiosh4}{{14}{10}{GPIO operations using bash system shell - output deinitialization}{lstlisting.14}{}}
\@writefile{lol}{\contentsline {lstlisting}{\numberline {14}GPIO operations using bash system shell - output deinitialization.}{10}{lstlisting.14}\protected@file@percent }
\newlabel{lst:gpiosh5}{{15}{10}{GPIO operations using bash system shell - simple application example: LED toggle}{lstlisting.15}{}}
\@writefile{lol}{\contentsline {lstlisting}{\numberline {15}GPIO operations using bash system shell - simple application example: LED toggle.}{10}{lstlisting.15}\protected@file@percent }
\newlabel{lst:gpiosh6}{{16}{10}{GPIO operations using bash system shell - input initialization}{lstlisting.16}{}}
\@writefile{lol}{\contentsline {lstlisting}{\numberline {16}GPIO operations using bash system shell - input initialization.}{10}{lstlisting.16}\protected@file@percent }
\newlabel{lst:gpiosh7}{{17}{11}{GPIO operations using bash system shell - input read}{lstlisting.17}{}}
\@writefile{lol}{\contentsline {lstlisting}{\numberline {17}GPIO operations using bash system shell - input read.}{11}{lstlisting.17}\protected@file@percent }
\newlabel{lst:gpiosh8}{{18}{11}{GPIO operations using bash system shell - simple application example: rising edge detection}{lstlisting.18}{}}
\@writefile{lol}{\contentsline {lstlisting}{\numberline {18}GPIO operations using bash system shell - simple application example: rising edge detection.}{11}{lstlisting.18}\protected@file@percent }
\newlabel{lst:gpiopy1}{{19}{11}{GPIO operations using Python - LED toggle}{lstlisting.19}{}}
\@writefile{lol}{\contentsline {lstlisting}{\numberline {19}GPIO operations using Python - LED toggle.}{11}{lstlisting.19}\protected@file@percent }
\newlabel{lst:gpiopy2}{{20}{12}{GPIO operations using Python - rising edge detection}{lstlisting.20}{}}
\@writefile{lol}{\contentsline {lstlisting}{\numberline {20}GPIO operations using Python - rising edge detection.}{12}{lstlisting.20}\protected@file@percent }
\newlabel{lst:gpiopy3}{{21}{13}{GPIO operations using Python - LED toggle after edge detection}{lstlisting.21}{}}
\@writefile{lol}{\contentsline {lstlisting}{\numberline {21}GPIO operations using Python - LED toggle after edge detection.}{13}{lstlisting.21}\protected@file@percent }
\@writefile{lof}{\contentsline {figure}{\numberline {3}{\ignorespaces  WiringPi connector numbering - RPi model 3B. \relax }}{14}{figure.caption.3}\protected@file@percent }
\newlabel{fig:wpi}{{3}{14}{WiringPi connector numbering - RPi model 3B. \relax }{figure.caption.3}{}}
\newlabel{lst:gpiocpp1}{{22}{14}{GPIO operations using C++ - LED toggle}{lstlisting.22}{}}
\@writefile{lol}{\contentsline {lstlisting}{\numberline {22}GPIO operations using C++ - LED toggle.}{14}{lstlisting.22}\protected@file@percent }
\newlabel{lst:gpiocpp2}{{23}{15}{GPIO operations using C++ - rising edge detection}{lstlisting.23}{}}
\@writefile{lol}{\contentsline {lstlisting}{\numberline {23}GPIO operations using C++ - rising edge detection.}{15}{lstlisting.23}\protected@file@percent }
\newlabel{lst:gpiocpp3}{{24}{16}{GPIO operations using C++ - LED toggle after edge detection}{lstlisting.24}{}}
\@writefile{lol}{\contentsline {lstlisting}{\numberline {24}GPIO operations using C++ - LED toggle after edge detection.}{16}{lstlisting.24}\protected@file@percent }
\@writefile{toc}{\contentsline {subsubsection}{\numberline {2.}PWM}{17}{subsubsection.3.5.2}\protected@file@percent }
\newlabel{lst:pwmsh1}{{25}{17}{PWM operations using bash system shell and \textbf {gpio} app - duty setting}{lstlisting.25}{}}
\@writefile{lol}{\contentsline {lstlisting}{\numberline {25}PWM operations using bash system shell and \textbf  {gpio} app - duty setting.}{17}{lstlisting.25}\protected@file@percent }
\newlabel{lst:pwmsh2}{{26}{18}{PWM operations using bash system shell and \textbf {gpio} app - periodic duty change}{lstlisting.26}{}}
\@writefile{lol}{\contentsline {lstlisting}{\numberline {26}PWM operations using bash system shell and \textbf  {gpio} app - periodic duty change.}{18}{lstlisting.26}\protected@file@percent }
\newlabel{lst:pwmpy1}{{27}{18}{PWM operations using Python - duty setting}{lstlisting.27}{}}
\@writefile{lol}{\contentsline {lstlisting}{\numberline {27}PWM operations using Python - duty setting.}{18}{lstlisting.27}\protected@file@percent }
\newlabel{lst:pwmpy2}{{28}{19}{PWM operations using Python - periodic duty change}{lstlisting.28}{}}
\@writefile{lol}{\contentsline {lstlisting}{\numberline {28}PWM operations using Python - periodic duty change.}{19}{lstlisting.28}\protected@file@percent }
\newlabel{lst:pwmcpp1}{{29}{20}{PWM operations using C++ and WiringPi - duty setting}{lstlisting.29}{}}
\@writefile{lol}{\contentsline {lstlisting}{\numberline {29}PWM operations using C++ and WiringPi - duty setting.}{20}{lstlisting.29}\protected@file@percent }
\newlabel{lst:pwmcpp2}{{30}{21}{PWM operations using C++ and WiringPi - periodic duty change}{lstlisting.30}{}}
\@writefile{lol}{\contentsline {lstlisting}{\numberline {30}PWM operations using C++ and WiringPi - periodic duty change.}{21}{lstlisting.30}\protected@file@percent }
\citation{lighttpd}
\@writefile{toc}{\contentsline {subsection}{\numberline {f)}Server configuration - Lighttpd}{22}{subsection.3.6}\protected@file@percent }
\newlabel{lst:lighttpdconf}{{31}{22}{Default contents of configuration file /etc/lighttpd/lighttpd.conf}{lstlisting.31}{}}
\@writefile{lol}{\contentsline {lstlisting}{\numberline {31}Default contents of configuration file /etc/lighttpd/lighttpd.conf}{22}{lstlisting.31}\protected@file@percent }
\newlabel{lst:php1}{{32}{23}{An example of a PHP script controlling a LED (via GPIO) with a system shell script}{lstlisting.32}{}}
\@writefile{lol}{\contentsline {lstlisting}{\numberline {32}An example of a PHP script controlling a LED (via GPIO) with a system shell script.}{23}{lstlisting.32}\protected@file@percent }
\@writefile{lof}{\contentsline {figure}{\numberline {4}{\ignorespaces  Server response - script controlling LED state (via GPIO). \relax }}{24}{figure.caption.4}\protected@file@percent }
\newlabel{fig:ff}{{4}{24}{Server response - script controlling LED state (via GPIO). \relax }{figure.caption.4}{}}
\@writefile{toc}{\contentsline {section}{\numberline {IV.}Scenario for the class}{24}{section.4}\protected@file@percent }
\@writefile{toc}{\contentsline {subsection}{\numberline {a)}Teaching resources}{24}{subsection.4.1}\protected@file@percent }
\@writefile{toc}{\contentsline {subsection}{\numberline {b)}Tasks}{24}{subsection.4.2}\protected@file@percent }
\newlabel{exercises}{{b)}{24}{Tasks}{subsection.4.2}{}}
\@writefile{toc}{\contentsline {subsubsection}{\numberline {1.}Configuration of network interfaces}{24}{subsubsection.4.2.1}\protected@file@percent }
\@writefile{toc}{\contentsline {subsubsection}{\numberline {2.}Command line applications (CLIs)}{25}{subsubsection.4.2.2}\protected@file@percent }
\bibstyle{IEEEtran}
\bibdata{../TemplateLatex/AM_REF}
\bibcite{szablon_raportu}{1}
\bibcite{wymogi_raportu_ENG}{2}
\bibcite{bhp_ENG}{3}
\bibcite{rpidoc}{4}
\bibcite{rpicomm}{5}
\bibcite{ifconfig}{6}
\bibcite{raspbian}{7}
\bibcite{bashdoc}{8}
\@writefile{toc}{\contentsline {subsubsection}{\numberline {3.}Peripheral devices}{26}{subsubsection.4.2.3}\protected@file@percent }
\@writefile{toc}{\contentsline {subsubsection}{\numberline {4.}Server applications}{26}{subsubsection.4.2.4}\protected@file@percent }
\bibcite{pythondoc}{9}
\bibcite{c11doc}{10}
\bibcite{gccdoc}{11}
\bibcite{getoptdoc}{12}
\bibcite{bcdoc}{13}
\bibcite{getoptpydoc}{14}
\bibcite{wiringpi}{15}
\bibcite{lighttpd}{16}
\newlabel{LastPage}{{}{27}{}{page.27}{}}
\xdef\lastpage@lastpage{27}
\xdef\lastpage@lastpageHy{27}
