\relax 
\providecommand\hyper@newdestlabel[2]{}
\providecommand\HyperFirstAtBeginDocument{\AtBeginDocument}
\HyperFirstAtBeginDocument{\ifx\hyper@anchor\@undefined
\global\let\oldcontentsline\contentsline
\gdef\contentsline#1#2#3#4{\oldcontentsline{#1}{#2}{#3}}
\global\let\oldnewlabel\newlabel
\gdef\newlabel#1#2{\newlabelxx{#1}#2}
\gdef\newlabelxx#1#2#3#4#5#6{\oldnewlabel{#1}{{#2}{#3}}}
\AtEndDocument{\ifx\hyper@anchor\@undefined
\let\contentsline\oldcontentsline
\let\newlabel\oldnewlabel
\fi}
\fi}
\global\let\hyper@last\relax 
\gdef\HyperFirstAtBeginDocument#1{#1}
\providecommand\HyField@AuxAddToFields[1]{}
\providecommand\HyField@AuxAddToCoFields[2]{}
\bbl@cs{beforestart}
\catcode `"\active 
\babel@aux{polish}{}
\@writefile{toc}{\contentsline {section}{\numberline {I.}Cel realizacji zadania}{2}{section.1}\protected@file@percent }
\@writefile{toc}{\contentsline {section}{\numberline {II.}Opis zadania zaliczeniowego}{2}{section.2}\protected@file@percent }
\@writefile{toc}{\contentsline {subsection}{\numberline {a)}Struktura systemu IoT}{3}{subsection.2.1}\protected@file@percent }
\@writefile{lof}{\contentsline {figure}{\numberline {1}{\ignorespaces  Schemat ideowy struktury systemu IoT. \relax }}{3}{figure.caption.1}\protected@file@percent }
\providecommand*\caption@xref[2]{\@setref\relax\@undefined{#1}}
\newlabel{fig:scheme}{{1}{3}{Schemat ideowy struktury systemu IoT. \relax }{figure.caption.1}{}}
\@writefile{toc}{\contentsline {subsection}{\numberline {b)}Specyfikacja systemu IoT}{3}{subsection.2.2}\protected@file@percent }
\citation{pattern1}
\citation{pattern2}
\citation{pattern3}
\citation{ssl1}
\citation{ssl2}
\citation{szablon_raportu}
\@writefile{toc}{\contentsline {subsection}{\numberline {c)}Prezentacja systemu}{5}{subsection.2.3}\protected@file@percent }
\newlabel{P}{{c)}{5}{Prezentacja systemu}{subsection.2.3}{}}
\newlabel{eq0}{{1}{5}{Prezentacja systemu}{equation.2.1}{}}
\@writefile{toc}{\contentsline {subsection}{\numberline {d)}Raport z realizacji zadania}{5}{subsection.2.4}\protected@file@percent }
\newlabel{R}{{d)}{5}{Raport z realizacji zadania}{subsection.2.4}{}}
\bibstyle{../TemplateLatex/IEEEtranPL}
\bibdata{../TemplateLatex/AM_REF}
\bibcite{pattern1}{1}
\bibcite{pattern2}{2}
\bibcite{pattern3}{3}
\bibcite{ssl1}{4}
\bibcite{ssl2}{5}
\bibcite{szablon_raportu}{6}
\@writefile{toc}{\contentsline {subsection}{\numberline {e)}Organizacja kodu źródłowego}{6}{subsection.2.5}\protected@file@percent }
\newlabel{SC}{{e)}{6}{Organizacja kodu źródłowego}{subsection.2.5}{}}
\@writefile{toc}{\contentsline {section}{\numberline {III.}Środki dydaktyczne}{6}{section.3}\protected@file@percent }
\newlabel{LastPage}{{}{7}{}{page.7}{}}
\xdef\lastpage@lastpage{7}
\xdef\lastpage@lastpageHy{7}
