\relax 
\providecommand\hyper@newdestlabel[2]{}
\providecommand\HyperFirstAtBeginDocument{\AtBeginDocument}
\HyperFirstAtBeginDocument{\ifx\hyper@anchor\@undefined
\global\let\oldcontentsline\contentsline
\gdef\contentsline#1#2#3#4{\oldcontentsline{#1}{#2}{#3}}
\global\let\oldnewlabel\newlabel
\gdef\newlabel#1#2{\newlabelxx{#1}#2}
\gdef\newlabelxx#1#2#3#4#5#6{\oldnewlabel{#1}{{#2}{#3}}}
\AtEndDocument{\ifx\hyper@anchor\@undefined
\let\contentsline\oldcontentsline
\let\newlabel\oldnewlabel
\fi}
\fi}
\global\let\hyper@last\relax 
\gdef\HyperFirstAtBeginDocument#1{#1}
\providecommand\HyField@AuxAddToFields[1]{}
\providecommand\HyField@AuxAddToCoFields[2]{}
\bbl@cs{beforestart}
\babel@aux{english}{}
\@writefile{toc}{\contentsline {section}{\numberline {I.}Cel realizacji zadania}{2}{section.1}\protected@file@percent }
\@writefile{toc}{\contentsline {section}{\numberline {II.}Description of final task}{2}{section.2}\protected@file@percent }
\@writefile{toc}{\contentsline {subsection}{\numberline {a)}IoT system structure}{3}{subsection.2.1}\protected@file@percent }
\@writefile{lof}{\contentsline {figure}{\numberline {1}{\ignorespaces  Schematic diagram of structure of an IoT system.\relax }}{3}{figure.caption.1}\protected@file@percent }
\providecommand*\caption@xref[2]{\@setref\relax\@undefined{#1}}
\newlabel{fig:scheme}{{1}{3}{Schematic diagram of structure of an IoT system.\relax }{figure.caption.1}{}}
\@writefile{toc}{\contentsline {subsection}{\numberline {b)}IoT system specification}{3}{subsection.2.2}\protected@file@percent }
\citation{pattern1}
\citation{pattern2}
\citation{pattern3}
\citation{ssl1}
\citation{ssl2}
\@writefile{toc}{\contentsline {subsection}{\numberline {c)}System presentation}{4}{subsection.2.3}\protected@file@percent }
\newlabel{P}{{c)}{4}{System presentation}{subsection.2.3}{}}
\citation{szablon_raportu}
\newlabel{eq0}{{1}{5}{System presentation}{equation.2.1}{}}
\@writefile{toc}{\contentsline {subsection}{\numberline {d)}Report of system development}{5}{subsection.2.4}\protected@file@percent }
\newlabel{R}{{d)}{5}{Report of system development}{subsection.2.4}{}}
\@writefile{toc}{\contentsline {subsection}{\numberline {e)}Organization of source code}{5}{subsection.2.5}\protected@file@percent }
\newlabel{SC}{{e)}{5}{Organization of source code}{subsection.2.5}{}}
\bibstyle{IEEEtran}
\bibdata{../TemplateLatex/AM_REF}
\bibcite{pattern1}{1}
\bibcite{pattern2}{2}
\bibcite{pattern3}{3}
\bibcite{ssl1}{4}
\bibcite{ssl2}{5}
\bibcite{szablon_raportu}{6}
\@writefile{toc}{\contentsline {subsection}{\numberline {f)}Teaching resources}{6}{subsection.2.6}\protected@file@percent }
\newlabel{LastPage}{{}{6}{}{page.6}{}}
\xdef\lastpage@lastpage{6}
\xdef\lastpage@lastpageHy{6}
