\BOOKMARK [1][-]{section.1}{Cel realizacji zadania}{}% 1
\BOOKMARK [1][-]{section.2}{Opis zadania zaliczeniowego}{}% 2
\BOOKMARK [2][-]{subsection.2.1}{Struktura systemu IoT}{section.2}% 3
\BOOKMARK [2][-]{subsection.2.2}{Specyfikacja systemu IoT}{section.2}% 4
\BOOKMARK [2][-]{subsection.2.3}{Prezentacja systemu}{section.2}% 5
\BOOKMARK [2][-]{subsection.2.4}{Raport z realizacji zadania}{section.2}% 6
\BOOKMARK [2][-]{subsection.2.5}{Organizacja kodu zr\363d\233owego}{section.2}% 7
\BOOKMARK [1][-]{section.3}{Srodki dydaktyczne}{}% 8
