\BOOKMARK [1][-]{section.1}{Cel zajec}{}% 1
\BOOKMARK [1][-]{section.2}{Polecenia koncowe}{}% 2
\BOOKMARK [1][-]{section.3}{Przygotowanie do zajec}{}% 3
\BOOKMARK [2][-]{subsection.3.1}{Zapoznanie z przepisami BHP}{section.3}% 4
\BOOKMARK [2][-]{subsection.3.2}{Wprowadzenie do HTML}{section.3}% 5
\BOOKMARK [2][-]{subsection.3.3}{Obiektowy model dokumentu}{section.3}% 6
\BOOKMARK [2][-]{subsection.3.4}{Wprowadzenie do JavaScript}{section.3}% 7
\BOOKMARK [3][-]{subsubsection.3.4.1}{JavaScript w dokumencie HTML}{subsection.3.4}% 8
\BOOKMARK [3][-]{subsubsection.3.4.2}{JSON w jezyku JavaScript}{subsection.3.4}% 9
\BOOKMARK [3][-]{subsubsection.3.4.3}{Debugowanie JS w przegladarce}{subsection.3.4}% 10
\BOOKMARK [1][-]{section.4}{Scenariusz do zajec}{}% 11
\BOOKMARK [2][-]{subsection.4.1}{Srodki dydaktyczne}{section.4}% 12
\BOOKMARK [2][-]{subsection.4.2}{Zadania do realizacji}{section.4}% 13
