\relax 
\providecommand\hyper@newdestlabel[2]{}
\providecommand\HyperFirstAtBeginDocument{\AtBeginDocument}
\HyperFirstAtBeginDocument{\ifx\hyper@anchor\@undefined
\global\let\oldcontentsline\contentsline
\gdef\contentsline#1#2#3#4{\oldcontentsline{#1}{#2}{#3}}
\global\let\oldnewlabel\newlabel
\gdef\newlabel#1#2{\newlabelxx{#1}#2}
\gdef\newlabelxx#1#2#3#4#5#6{\oldnewlabel{#1}{{#2}{#3}}}
\AtEndDocument{\ifx\hyper@anchor\@undefined
\let\contentsline\oldcontentsline
\let\newlabel\oldnewlabel
\fi}
\fi}
\global\let\hyper@last\relax 
\gdef\HyperFirstAtBeginDocument#1{#1}
\providecommand\HyField@AuxAddToFields[1]{}
\providecommand\HyField@AuxAddToCoFields[2]{}
\bbl@cs{beforestart}
\catcode `"\active 
\babel@aux{polish}{}
\citation{szablon_raportu}
\citation{wymogi_raportu}
\citation{bhp}
\citation{htmlmozilla}
\citation{html}
\citation{html5}
\citation{htmldoc}
\@writefile{toc}{\contentsline {section}{\numberline {I.}Cel zajęć}{2}{section.1}\protected@file@percent }
\@writefile{toc}{\contentsline {section}{\numberline {II.}Polecenia końcowe}{2}{section.2}\protected@file@percent }
\@writefile{toc}{\contentsline {section}{\numberline {III.}Przygotowanie do zajęć}{2}{section.3}\protected@file@percent }
\@writefile{toc}{\contentsline {subsection}{\numberline {a)}Zapoznanie z przepisami BHP}{2}{subsection.3.1}\protected@file@percent }
\citation{htmlmozilla}
\citation{domwiki}
\citation{domwiki}
\citation{dom}
\@writefile{toc}{\contentsline {subsection}{\numberline {b)}Wprowadzenie do HTML}{3}{subsection.3.2}\protected@file@percent }
\@writefile{toc}{\contentsline {subsection}{\numberline {c)}Obiektowy model dokumentu}{3}{subsection.3.3}\protected@file@percent }
\@writefile{lof}{\contentsline {figure}{\numberline {1}{\ignorespaces Przykład hierarchii DOM w dokumencie HTML \cite  {domwiki}. \relax }}{3}{figure.caption.1}\protected@file@percent }
\providecommand*\caption@xref[2]{\@setref\relax\@undefined{#1}}
\newlabel{fig:dom}{{1}{3}{Przykład hierarchii DOM w dokumencie HTML \cite {domwiki}. \relax }{figure.caption.1}{}}
\citation{jsmozilla}
\citation{js}
\@writefile{toc}{\contentsline {subsection}{\numberline {d)}Wprowadzenie do JavaScript}{4}{subsection.3.4}\protected@file@percent }
\@writefile{toc}{\contentsline {subsubsection}{\numberline {1.}JavaScript w dokumencie HTML}{4}{subsubsection.3.4.1}\protected@file@percent }
\newlabel{lst:html1}{{1}{4}{Przykład dokumentu HTML ze skryptem JavaScript w jednym pliku}{lstlisting.1}{}}
\@writefile{lol}{\contentsline {lstlisting}{\numberline {1}Przykład dokumentu HTML ze skryptem JavaScript w jednym pliku.}{4}{lstlisting.1}\protected@file@percent }
\newlabel{lst:html2}{{2}{5}{Przykład dokumentu HTML ze skryptem JavaScript w osobnym pliku}{lstlisting.2}{}}
\@writefile{lol}{\contentsline {lstlisting}{\numberline {2}Przykład dokumentu HTML ze skryptem JavaScript w osobnym pliku.}{5}{lstlisting.2}\protected@file@percent }
\newlabel{lst:js}{{3}{5}{Przykład skryptu JavaScript w osobnym pliku}{lstlisting.3}{}}
\@writefile{lol}{\contentsline {lstlisting}{\numberline {3}Przykład skryptu JavaScript w osobnym pliku.}{5}{lstlisting.3}\protected@file@percent }
\@writefile{toc}{\contentsline {subsubsection}{\numberline {2.}JSON w języku JavaScript}{5}{subsubsection.3.4.2}\protected@file@percent }
\newlabel{lst:json}{{4}{5}{Przykład wykorzystania funkcji \lstinline {JSON.parse()} i \lstinline {JSON.stringify()}}{lstlisting.4}{}}
\@writefile{lol}{\contentsline {lstlisting}{\numberline {4}Przykład wykorzystania funkcji \lstinline {JSON.parse()} i \lstinline {JSON.stringify()}.}{5}{lstlisting.4}\protected@file@percent }
\@writefile{toc}{\contentsline {subsubsection}{\numberline {3.}Debugowanie JS w przeglądarce}{5}{subsubsection.3.4.3}\protected@file@percent }
\@writefile{lof}{\contentsline {figure}{\numberline {2}{\ignorespaces Przykład debugowania skryptu JS w przeglądarce Chrome - zatrzymanie egzekucji skryptu za pomocą \textit  {breakpointa} w linijce 8. po naciśnięciu przycisku. \relax }}{6}{figure.caption.2}\protected@file@percent }
\newlabel{fig:debug}{{2}{6}{Przykład debugowania skryptu JS w przeglądarce Chrome - zatrzymanie egzekucji skryptu za pomocą \textit {breakpointa} w linijce 8. po naciśnięciu przycisku. \relax }{figure.caption.2}{}}
\@writefile{toc}{\contentsline {section}{\numberline {IV.}Scenariusz do zajęć}{6}{section.4}\protected@file@percent }
\@writefile{toc}{\contentsline {subsection}{\numberline {a)}Środki dydaktyczne}{6}{subsection.4.1}\protected@file@percent }
\@writefile{toc}{\contentsline {subsection}{\numberline {b)}Zadania do realizacji}{6}{subsection.4.2}\protected@file@percent }
\newlabel{exercises}{{b)}{6}{Zadania do realizacji}{subsection.4.2}{}}
\bibstyle{../TemplateLatex/IEEEtranPL}
\bibdata{../TemplateLatex/AM_REF}
\bibcite{szablon_raportu}{1}
\bibcite{wymogi_raportu}{2}
\bibcite{bhp}{3}
\bibcite{htmlmozilla}{4}
\bibcite{html}{5}
\bibcite{html5}{6}
\bibcite{htmldoc}{7}
\bibcite{domwiki}{8}
\bibcite{dom}{9}
\bibcite{jsmozilla}{10}
\bibcite{js}{11}
\newlabel{LastPage}{{}{8}{}{page.8}{}}
\xdef\lastpage@lastpage{8}
\xdef\lastpage@lastpageHy{8}
