\relax 
\providecommand\hyper@newdestlabel[2]{}
\providecommand\HyperFirstAtBeginDocument{\AtBeginDocument}
\HyperFirstAtBeginDocument{\ifx\hyper@anchor\@undefined
\global\let\oldcontentsline\contentsline
\gdef\contentsline#1#2#3#4{\oldcontentsline{#1}{#2}{#3}}
\global\let\oldnewlabel\newlabel
\gdef\newlabel#1#2{\newlabelxx{#1}#2}
\gdef\newlabelxx#1#2#3#4#5#6{\oldnewlabel{#1}{{#2}{#3}}}
\AtEndDocument{\ifx\hyper@anchor\@undefined
\let\contentsline\oldcontentsline
\let\newlabel\oldnewlabel
\fi}
\fi}
\global\let\hyper@last\relax 
\gdef\HyperFirstAtBeginDocument#1{#1}
\providecommand\HyField@AuxAddToFields[1]{}
\providecommand\HyField@AuxAddToCoFields[2]{}
\bbl@cs{beforestart}
\babel@aux{english}{}
\citation{szablon_raportu}
\citation{wymogi_raportu_ENG}
\citation{bhp_ENG}
\citation{htmlmozilla}
\@writefile{toc}{\contentsline {section}{\numberline {I.}Goal}{2}{section.1}\protected@file@percent }
\@writefile{toc}{\contentsline {section}{\numberline {II.}Final Task}{2}{section.2}\protected@file@percent }
\@writefile{toc}{\contentsline {section}{\numberline {III.}Prepare to course}{2}{section.3}\protected@file@percent }
\@writefile{toc}{\contentsline {subsection}{\numberline {a)}Know the safety rules}{2}{subsection.3.1}\protected@file@percent }
\citation{html}
\citation{html5}
\citation{htmldoc}
\citation{htmlmozilla}
\citation{domwiki}
\citation{domwiki}
\citation{dom}
\@writefile{toc}{\contentsline {subsection}{\numberline {b)}Introduction to HTML}{3}{subsection.3.2}\protected@file@percent }
\@writefile{toc}{\contentsline {subsection}{\numberline {c)}Document object model}{3}{subsection.3.3}\protected@file@percent }
\@writefile{lof}{\contentsline {figure}{\numberline {1}{\ignorespaces An example of the DOM hierarchy in an HTML document \cite  {domwiki}. \relax }}{3}{figure.caption.1}\protected@file@percent }
\providecommand*\caption@xref[2]{\@setref\relax\@undefined{#1}}
\newlabel{fig:dom}{{1}{3}{An example of the DOM hierarchy in an HTML document \cite {domwiki}. \relax }{figure.caption.1}{}}
\citation{jsmozilla}
\citation{js}
\@writefile{toc}{\contentsline {subsection}{\numberline {d)}Introduction to JavaScript}{4}{subsection.3.4}\protected@file@percent }
\@writefile{toc}{\contentsline {subsubsection}{\numberline {1.}JavaScript in HTML document}{4}{subsubsection.3.4.1}\protected@file@percent }
\newlabel{lst:html1}{{1}{4}{An example of an HTML document with JavaScript in single file}{lstlisting.1}{}}
\@writefile{lol}{\contentsline {lstlisting}{\numberline {1}An example of an HTML document with JavaScript in single file.}{4}{lstlisting.1}\protected@file@percent }
\newlabel{lst:html2}{{2}{5}{An example of an HTML document with JavaScript in a separate file}{lstlisting.2}{}}
\@writefile{lol}{\contentsline {lstlisting}{\numberline {2}An example of an HTML document with JavaScript in a separate file.}{5}{lstlisting.2}\protected@file@percent }
\newlabel{lst:js}{{3}{5}{An example of JavaScript in a separate \textbf {.js} file}{lstlisting.3}{}}
\@writefile{lol}{\contentsline {lstlisting}{\numberline {3}An example of JavaScript in a separate \textbf  {.js} file.}{5}{lstlisting.3}\protected@file@percent }
\@writefile{toc}{\contentsline {subsubsection}{\numberline {2.}JSON in JavaScript}{5}{subsubsection.3.4.2}\protected@file@percent }
\newlabel{lst:json}{{4}{5}{An example use case of functions \lstinline {JSON.parse()} and \lstinline {JSON.stringify()}}{lstlisting.4}{}}
\@writefile{lol}{\contentsline {lstlisting}{\numberline {4}An example use case of functions \lstinline {JSON.parse()} and \lstinline {JSON.stringify()}.}{5}{lstlisting.4}\protected@file@percent }
\@writefile{toc}{\contentsline {subsubsection}{\numberline {3.}JavaScript code debugging in web browser}{5}{subsubsection.3.4.3}\protected@file@percent }
\@writefile{lof}{\contentsline {figure}{\numberline {2}{\ignorespaces An example of debugging a JS script in the Chrome browser - stopping script execution using \textit  {breakpoint} in line 8. after pressing ,,Click me'' button.\relax }}{6}{figure.caption.2}\protected@file@percent }
\newlabel{fig:debug}{{2}{6}{An example of debugging a JS script in the Chrome browser - stopping script execution using \textit {breakpoint} in line 8. after pressing ,,Click me'' button.\relax }{figure.caption.2}{}}
\@writefile{toc}{\contentsline {section}{\numberline {IV.}Scenario for the class}{6}{section.4}\protected@file@percent }
\@writefile{toc}{\contentsline {subsection}{\numberline {a)}Teaching resources}{6}{subsection.4.1}\protected@file@percent }
\@writefile{toc}{\contentsline {subsection}{\numberline {b)}Tasks}{6}{subsection.4.2}\protected@file@percent }
\newlabel{exercises}{{b)}{6}{Tasks}{subsection.4.2}{}}
\bibstyle{IEEEtran}
\bibdata{../TemplateLatex/AM_REF}
\bibcite{szablon_raportu}{1}
\bibcite{wymogi_raportu_ENG}{2}
\bibcite{bhp_ENG}{3}
\bibcite{htmlmozilla}{4}
\bibcite{html}{5}
\bibcite{html5}{6}
\bibcite{htmldoc}{7}
\bibcite{domwiki}{8}
\bibcite{dom}{9}
\bibcite{jsmozilla}{10}
\bibcite{js}{11}
\newlabel{LastPage}{{}{8}{}{page.8}{}}
\xdef\lastpage@lastpage{8}
\xdef\lastpage@lastpageHy{8}
