% Generated by IEEEtran.bst, version: 1.14 (2015/08/26)
\begin{thebibliography}{10}
\providecommand{\url}[1]{#1}
\csname url@samestyle\endcsname
\providecommand{\newblock}{\relax}
\providecommand{\bibinfo}[2]{#2}
\providecommand{\BIBentrySTDinterwordspacing}{\spaceskip=0pt\relax}
\providecommand{\BIBentryALTinterwordstretchfactor}{4}
\providecommand{\BIBentryALTinterwordspacing}{\spaceskip=\fontdimen2\font plus
\BIBentryALTinterwordstretchfactor\fontdimen3\font minus
  \fontdimen4\font\relax}
\providecommand{\BIBforeignlanguage}[2]{{%
\expandafter\ifx\csname l@#1\endcsname\relax
\typeout{** WARNING: IEEEtran.bst: No hyphenation pattern has been}%
\typeout{** loaded for the language `#1'. Using the pattern for}%
\typeout{** the default language instead.}%
\else
\language=\csname l@#1\endcsname
\fi
#2}}
\providecommand{\BIBdecl}{\relax}
\BIBdecl

\bibitem{szablon_raportu}
\BIBentryALTinterwordspacing
``Szablon sprawozdania.'' [online]. Pobrano:
  \url{http://zsep.cie.put.poznan.pl/materialy-dydaktyczne/MD/Szablony/Szablon-sprawozdania/}
\BIBentrySTDinterwordspacing

\bibitem{wymogi_raportu}
\BIBentryALTinterwordspacing
``Wymogi sprawozdania.'' [online]. Pobrano:
  \url{http://zsep.cie.put.poznan.pl/index.php/materialy-dydaktyczne/MD/AiR-stac.-in%C5%BC.-s5/Systemy-mikroprocesorowe/Laboratorium/Instrukcje---STM32/L00-Wymogi-sprawozdania/}
\BIBentrySTDinterwordspacing

\bibitem{bhp}
\BIBentryALTinterwordspacing
``Regulaminy porządkowe, instrukcje {BHP}.'' [online]. Pobrano:
  \url{http://zsep.cie.put.poznan.pl/materialy-dydaktyczne/MD/Regulaminy-porz%C4%85dkowe-instrukcje-BHP/}
\BIBentrySTDinterwordspacing

\bibitem{octave}
\BIBentryALTinterwordspacing
``{GNU} {Octave},'' library Catalog: www.gnu.org. [online]. Pobrano:
  \url{https://www.gnu.org/software/octave/}
\BIBentrySTDinterwordspacing

\bibitem{scipy}
\BIBentryALTinterwordspacing
``{SciPy}.org.'' [online]. Pobrano: \url{https://www.scipy.org/}
\BIBentrySTDinterwordspacing

\bibitem{harris}
R.~W. Middlestead, \emph{\BIBforeignlanguage{en}{Digital {Communications} with
  {Emphasis} on {Data} {Modems}: {Theory}, {Analysis}, {Design}, {Simulation},
  {Testing}, and {Applications}}}.\hskip 1em plus 0.5em minus 0.4em\relax John
  Wiley \& Sons, Apr. 2017, google-Books-ID: RxsjDgAAQBAJ.

\bibitem{octavefir1}
\BIBentryALTinterwordspacing
``Function {Reference}: fir1.'' [online]. Pobrano:
  \url{https://octave.sourceforge.io/signal/function/fir1.html}
\BIBentrySTDinterwordspacing

\bibitem{scipyfirwin}
\BIBentryALTinterwordspacing
``scipy.signal.firwin — {SciPy} v1.4.1 {Reference} {Guide}.'' [online].
  Pobrano:
  \url{https://docs.scipy.org/doc/scipy/reference/generated/scipy.signal.firwin.html}
\BIBentrySTDinterwordspacing

\bibitem{window}
\BIBentryALTinterwordspacing
``\BIBforeignlanguage{en}{Window function},'' Apr. 2020, page Version ID:
  951701883. [online]. Pobrano:
  \url{https://en.wikipedia.org/w/index.php?title=Window_function&oldid=951701883}
\BIBentrySTDinterwordspacing

\bibitem{octavefilter}
\BIBentryALTinterwordspacing
``Function {Reference}: filter.'' [online]. Pobrano:
  \url{https://octave.sourceforge.io/octave/function/filter.html}
\BIBentrySTDinterwordspacing

\bibitem{scipylfilter}
\BIBentryALTinterwordspacing
``scipy.signal.lfilter — {SciPy} v1.4.1 {Reference} {Guide}.'' [online].
  Pobrano:
  \url{https://docs.scipy.org/doc/scipy/reference/generated/scipy.signal.lfilter.html}
\BIBentrySTDinterwordspacing

\bibitem{ut}
\BIBentryALTinterwordspacing
``Introduction to {Test} {Driven} {Development} ({TDD}).'' [online]. Pobrano:
  \url{http://agiledata.org/essays/tdd.html}
\BIBentrySTDinterwordspacing

\bibitem{junit}
\BIBentryALTinterwordspacing
``\BIBforeignlanguage{en}{Build local unit tests},'' library Catalog:
  developer.android.com. [online]. Pobrano:
  \url{https://developer.android.com/training/testing/unit-testing/local-unit-tests}
\BIBentrySTDinterwordspacing

\bibitem{unitjs}
\BIBentryALTinterwordspacing
``Unit testing framework for {Javascript} - {Unit} {JS}.'' [online]. Pobrano:
  \url{https://unitjs.com/}
\BIBentrySTDinterwordspacing

\bibitem{mstest}
\BIBentryALTinterwordspacing
ncarandini, ``\BIBforeignlanguage{pl-pl}{Testowanie jednostkowe {C}\# z
  {MSTest} i .{NET} {Core} - .{NET} {Core}},'' library Catalog:
  docs.microsoft.com. [online]. Pobrano:
  \url{https://docs.microsoft.com/pl-pl/dotnet/core/testing/unit-testing-with-mstest}
\BIBentrySTDinterwordspacing

\bibitem{volley}
\BIBentryALTinterwordspacing
``\BIBforeignlanguage{en}{Volley overview},'' library Catalog:
  developer.android.com. [online]. Pobrano:
  \url{https://developer.android.com/training/volley}
\BIBentrySTDinterwordspacing

\bibitem{graphview}
\BIBentryALTinterwordspacing
``\BIBforeignlanguage{en}{jjoe64/{GraphView}},'' library Catalog: github.com.
  [online]. Pobrano: \url{https://github.com/jjoe64/GraphView}
\BIBentrySTDinterwordspacing

\bibitem{asyncjs}
\BIBentryALTinterwordspacing
``\BIBforeignlanguage{pl}{funkcja async},'' library Catalog:
  developer.mozilla.org. [online]. Pobrano:
  \url{https://developer.mozilla.org/pl/docs/Web/JavaScript/Referencje/Polecenia/funkcja_async}
\BIBentrySTDinterwordspacing

\bibitem{jquery}
\BIBentryALTinterwordspacing
J.~F. js.foundation, ``\BIBforeignlanguage{en-US}{{jQuery}},'' library Catalog:
  jquery.com. [online]. Pobrano: \url{https://jquery.com/}
\BIBentrySTDinterwordspacing

\bibitem{chartjs}
\BIBentryALTinterwordspacing
``Chart.js {\textbar} {Open} source {HTML5} {Charts} for your website.''
  [online]. Pobrano: \url{https://www.chartjs.org/}
\BIBentrySTDinterwordspacing

\bibitem{asynccs}
\BIBentryALTinterwordspacing
BillWagner, ``\BIBforeignlanguage{pl-pl}{asynchronizowania — odwołanie do
  języka {C}\#},'' library Catalog: docs.microsoft.com. [online]. Pobrano:
  \url{https://docs.microsoft.com/pl-pl/dotnet/csharp/language-reference/keywords/async}
\BIBentrySTDinterwordspacing

\bibitem{httpclient}
\BIBentryALTinterwordspacing
``\BIBforeignlanguage{pl-pl}{{HttpClient} {Klasa} ({System}.{Net}.{Http})},''
  library Catalog: docs.microsoft.com. [online]. Pobrano:
  \url{https://docs.microsoft.com/pl-pl/dotnet/api/system.net.http.httpclient}
\BIBentrySTDinterwordspacing

\bibitem{oxyplot}
\BIBentryALTinterwordspacing
``\BIBforeignlanguage{en}{{OxyPlot}},'' library Catalog: github.com. [online].
  Pobrano: \url{https://github.com/oxyplot}
\BIBentrySTDinterwordspacing

\bibitem{unittest}
\BIBentryALTinterwordspacing
``unittest — {Unit} testing framework — {Python} 3.8.3rc1 documentation.''
  [online]. Pobrano: \url{https://docs.python.org/3/library/unittest.html}
\BIBentrySTDinterwordspacing

\end{thebibliography}
