\BOOKMARK [1][-]{section.1}{Cel zajec}{}% 1
\BOOKMARK [1][-]{section.2}{Polecenia koncowe}{}% 2
\BOOKMARK [1][-]{section.3}{Przygotowanie do zajec}{}% 3
\BOOKMARK [2][-]{subsection.3.1}{Zapoznanie z przepisami BHP}{section.3}% 4
\BOOKMARK [2][-]{subsection.3.2}{Przyk\233adowy algorytm CPS: filtr dolnoprzepustowy}{section.3}% 5
\BOOKMARK [3][-]{subsubsection.3.2.1}{Procedura projektowania filtra}{subsection.3.2}% 6
\BOOKMARK [3][-]{subsubsection.3.2.2}{Projekt filtra w srodowisku GNU Octave}{subsection.3.2}% 7
\BOOKMARK [3][-]{subsubsection.3.2.3}{Projekt filtra w jezyku Python}{subsection.3.2}% 8
\BOOKMARK [2][-]{subsection.3.3}{Realizacja CPS w jezykach programowania og\363lnego przeznaczenia}{section.3}% 9
\BOOKMARK [3][-]{subsubsection.3.3.1}{Filtr FIR w jezyku Java}{subsection.3.3}% 10
\BOOKMARK [3][-]{subsubsection.3.3.2}{Filtr FIR w jezyku JavaScript}{subsection.3.3}% 11
\BOOKMARK [3][-]{subsubsection.3.3.3}{Filtr FIR w jezyku C\043}{subsection.3.3}% 12
\BOOKMARK [2][-]{subsection.3.4}{Weryfikacja prawid\233owej implementacji CPS: testy jednostkowe}{section.3}% 13
\BOOKMARK [3][-]{subsubsection.3.4.1}{Test jednostkowy filtra FIR w jezyku Java}{subsection.3.4}% 14
\BOOKMARK [3][-]{subsubsection.3.4.2}{Test jednostkowy filtra w jezyku JavaScript}{subsection.3.4}% 15
\BOOKMARK [3][-]{subsubsection.3.4.3}{Test jednostkowy filtra w jezyku C\043}{subsection.3.4}% 16
\BOOKMARK [2][-]{subsection.3.5}{Wykorzystanie CPS w aplikacji}{section.3}% 17
\BOOKMARK [3][-]{subsubsection.3.5.1}{Demo aplikacji mobilnej z filtrem FIR}{subsection.3.5}% 18
\BOOKMARK [3][-]{subsubsection.3.5.2}{Demo aplikacji webowej z filtrem FIR}{subsection.3.5}% 19
\BOOKMARK [3][-]{subsubsection.3.5.3}{Demo aplikacji desktopowej z filtrem FIR}{subsection.3.5}% 20
\BOOKMARK [1][-]{section.4}{Scenariusz do zajec}{}% 21
\BOOKMARK [2][-]{subsection.4.1}{Srodki dydaktyczne}{section.4}% 22
\BOOKMARK [2][-]{subsection.4.2}{Zadania do realizacji}{section.4}% 23
