\relax 
\providecommand\hyper@newdestlabel[2]{}
\providecommand\HyperFirstAtBeginDocument{\AtBeginDocument}
\HyperFirstAtBeginDocument{\ifx\hyper@anchor\@undefined
\global\let\oldcontentsline\contentsline
\gdef\contentsline#1#2#3#4{\oldcontentsline{#1}{#2}{#3}}
\global\let\oldnewlabel\newlabel
\gdef\newlabel#1#2{\newlabelxx{#1}#2}
\gdef\newlabelxx#1#2#3#4#5#6{\oldnewlabel{#1}{{#2}{#3}}}
\AtEndDocument{\ifx\hyper@anchor\@undefined
\let\contentsline\oldcontentsline
\let\newlabel\oldnewlabel
\fi}
\fi}
\global\let\hyper@last\relax 
\gdef\HyperFirstAtBeginDocument#1{#1}
\providecommand\HyField@AuxAddToFields[1]{}
\providecommand\HyField@AuxAddToCoFields[2]{}
\bbl@cs{beforestart}
\catcode `"\active 
\babel@aux{polish}{}
\citation{szablon_raportu}
\citation{wymogi_raportu}
\citation{bhp}
\@writefile{toc}{\contentsline {section}{\numberline {I.}Cel zajęć}{2}{section.1}\protected@file@percent }
\@writefile{toc}{\contentsline {section}{\numberline {II.}Polecenia końcowe}{2}{section.2}\protected@file@percent }
\@writefile{toc}{\contentsline {section}{\numberline {III.}Przygotowanie do zajęć}{2}{section.3}\protected@file@percent }
\@writefile{toc}{\contentsline {subsection}{\numberline {a)}Zapoznanie z przepisami BHP}{2}{subsection.3.1}\protected@file@percent }
\citation{octave}
\citation{scipy}
\@writefile{toc}{\contentsline {subsection}{\numberline {b)}Przykładowy algorytm CPS: filtr dolnoprzepustowy}{3}{subsection.3.2}\protected@file@percent }
\@writefile{lof}{\contentsline {figure}{\numberline {1}{\ignorespaces  Schemat ideowy przyjętej techniki implementacji algorytmu CPS. \relax }}{3}{figure.caption.1}\protected@file@percent }
\providecommand*\caption@xref[2]{\@setref\relax\@undefined{#1}}
\newlabel{fig:workflow}{{1}{3}{Schemat ideowy przyjętej techniki implementacji algorytmu CPS. \relax }{figure.caption.1}{}}
\@writefile{toc}{\contentsline {subsubsection}{\numberline {1.}Procedura projektowania filtra}{3}{subsubsection.3.2.1}\protected@file@percent }
\citation{harris}
\citation{octavefir1}
\citation{scipyfirwin}
\citation{window}
\newlabel{eq0}{{1}{4}{Procedura projektowania filtra}{equation.3.1}{}}
\newlabel{eq1}{{2}{4}{Procedura projektowania filtra}{equation.3.2}{}}
\citation{octavefilter}
\citation{scipylfilter}
\@writefile{toc}{\contentsline {subsubsection}{\numberline {2.}Projekt filtra w środowisku GNU Octave}{5}{subsubsection.3.2.2}\protected@file@percent }
\newlabel{lst:octave}{{1}{5}{Projektowanie i analiza filtra - środowisko Octave}{lstlisting.1}{}}
\@writefile{lol}{\contentsline {lstlisting}{\numberline {1}Projektowanie i analiza filtra - środowisko Octave.}{5}{lstlisting.1}\protected@file@percent }
\@writefile{lof}{\contentsline {figure}{\numberline {2}{\ignorespaces  Wizualizacja analizy filtra - środowisko Octave. \relax }}{6}{figure.caption.2}\protected@file@percent }
\newlabel{fig:octave}{{2}{6}{Wizualizacja analizy filtra - środowisko Octave. \relax }{figure.caption.2}{}}
\@writefile{toc}{\contentsline {subsubsection}{\numberline {3.}Projekt filtra w języku Python}{6}{subsubsection.3.2.3}\protected@file@percent }
\newlabel{lst:scipy}{{2}{7}{Projektowanie i analiza filtra - Python z biblioteką SciPy}{lstlisting.2}{}}
\@writefile{lol}{\contentsline {lstlisting}{\numberline {2}Projektowanie i analiza filtra - Python z biblioteką SciPy.}{7}{lstlisting.2}\protected@file@percent }
\citation{ut}
\@writefile{lof}{\contentsline {figure}{\numberline {3}{\ignorespaces  Wizualizacja analizy filtra - Python z biblioteką SciPy. \relax }}{8}{figure.caption.3}\protected@file@percent }
\newlabel{fig:scipy}{{3}{8}{Wizualizacja analizy filtra - Python z biblioteką SciPy. \relax }{figure.caption.3}{}}
\@writefile{toc}{\contentsline {subsection}{\numberline {c)}Realizacja CPS w językach programowania ogólnego przeznaczenia}{8}{subsection.3.3}\protected@file@percent }
\@writefile{toc}{\contentsline {subsubsection}{\numberline {1.}Filtr FIR w języku Java}{8}{subsubsection.3.3.1}\protected@file@percent }
\newlabel{lst:firjava}{{3}{8}{Implementacja filtra FIR w języku Java}{lstlisting.3}{}}
\@writefile{lol}{\contentsline {lstlisting}{\numberline {3}Implementacja filtra FIR w języku Java.}{8}{lstlisting.3}\protected@file@percent }
\@writefile{toc}{\contentsline {subsubsection}{\numberline {2.}Filtr FIR w języku JavaScript}{9}{subsubsection.3.3.2}\protected@file@percent }
\newlabel{lst:firjs}{{4}{9}{Implementacja filtra FIR w języku JavaScript}{lstlisting.4}{}}
\@writefile{lol}{\contentsline {lstlisting}{\numberline {4}Implementacja filtra FIR w języku JavaScript.}{9}{lstlisting.4}\protected@file@percent }
\@writefile{toc}{\contentsline {subsubsection}{\numberline {3.}Filtr FIR w języku C\#}{10}{subsubsection.3.3.3}\protected@file@percent }
\newlabel{lst:fircs}{{5}{10}{Implementacja filtra FIR w języku C\#}{lstlisting.5}{}}
\@writefile{lol}{\contentsline {lstlisting}{\numberline {5}Implementacja filtra FIR w języku C\#.}{10}{lstlisting.5}\protected@file@percent }
\@writefile{toc}{\contentsline {subsection}{\numberline {d)}Weryfikacja prawidłowej implementacji CPS: testy jednostkowe}{10}{subsection.3.4}\protected@file@percent }
\citation{junit}
\@writefile{toc}{\contentsline {subsubsection}{\numberline {1.}Test jednostkowy filtra FIR w języku Java}{11}{subsubsection.3.4.1}\protected@file@percent }
\newlabel{lst:testjava}{{6}{11}{Kod testu jednostkowego klasy \lstinline {MyFir} (Java) w Android Studio IDE}{lstlisting.6}{}}
\@writefile{lol}{\contentsline {lstlisting}{\numberline {6}Kod testu jednostkowego klasy \lstinline {MyFir} (Java) w Android Studio IDE.}{11}{lstlisting.6}\protected@file@percent }
\citation{unitjs}
\@writefile{lof}{\contentsline {figure}{\numberline {4}{\ignorespaces  Test jednostkowy klasy \lstinline {MyFir} (Java) w Android Studio IDE zakończony sukcesem. \relax }}{12}{figure.caption.4}\protected@file@percent }
\newlabel{fig:ut_android}{{4}{12}{Test jednostkowy klasy \lstinline {MyFir} (Java) w Android Studio IDE zakończony sukcesem. \relax }{figure.caption.4}{}}
\@writefile{toc}{\contentsline {subsubsection}{\numberline {2.}Test jednostkowy filtra w języku JavaScript}{12}{subsubsection.3.4.2}\protected@file@percent }
\newlabel{lst:testjs}{{7}{12}{Kod testu jednostkowego klasy \lstinline {MyFir} (JavaScript) w przeglądarce Chrome}{lstlisting.7}{}}
\@writefile{lol}{\contentsline {lstlisting}{\numberline {7}Kod testu jednostkowego klasy \lstinline {MyFir} (JavaScript) w przeglądarce Chrome.}{12}{lstlisting.7}\protected@file@percent }
\citation{mstest}
\@writefile{lof}{\contentsline {figure}{\numberline {5}{\ignorespaces  Test jednostkowy klasy \lstinline {MyFir} (JavaScript) w przeglądarce Chrome zakończony sukcesem. \relax }}{13}{figure.caption.5}\protected@file@percent }
\newlabel{fig:ut_www}{{5}{13}{Test jednostkowy klasy \lstinline {MyFir} (JavaScript) w przeglądarce Chrome zakończony sukcesem. \relax }{figure.caption.5}{}}
\@writefile{toc}{\contentsline {subsubsection}{\numberline {3.}Test jednostkowy filtra w języku C\#}{13}{subsubsection.3.4.3}\protected@file@percent }
\newlabel{lst:testcs}{{8}{13}{Kod testu jednostkowego klasy \lstinline {MyFir} (C\#) w Visual Studio IDE}{lstlisting.8}{}}
\@writefile{lol}{\contentsline {lstlisting}{\numberline {8}Kod testu jednostkowego klasy \lstinline {MyFir} (C\#) w Visual Studio IDE.}{13}{lstlisting.8}\protected@file@percent }
\@writefile{lof}{\contentsline {figure}{\numberline {6}{\ignorespaces  Test jednostkowy klasy \lstinline {MyFir} (C\#) w Visual Studio IDE zakończony sukcesem. \relax }}{14}{figure.caption.6}\protected@file@percent }
\newlabel{fig:ut_windows}{{6}{14}{Test jednostkowy klasy \lstinline {MyFir} (C\#) w Visual Studio IDE zakończony sukcesem. \relax }{figure.caption.6}{}}
\citation{volley}
\citation{graphview}
\@writefile{toc}{\contentsline {subsection}{\numberline {e)}Wykorzystanie CPS w aplikacji}{15}{subsection.3.5}\protected@file@percent }
\@writefile{toc}{\contentsline {subsubsection}{\numberline {1.}Demo aplikacji mobilnej z filtrem FIR}{15}{subsubsection.3.5.1}\protected@file@percent }
\newlabel{lst:demojava}{{9}{15}{Integracja algorytmu CPS z mobilną aplikacją kliencką}{lstlisting.9}{}}
\@writefile{lol}{\contentsline {lstlisting}{\numberline {9}Integracja algorytmu CPS z mobilną aplikacją kliencką.}{15}{lstlisting.9}\protected@file@percent }
\citation{asyncjs}
\citation{jquery}
\citation{chartjs}
\@writefile{lof}{\contentsline {figure}{\numberline {7}{\ignorespaces  GUI demonstracyjnej aplikacji mobilnej. \relax }}{16}{figure.caption.7}\protected@file@percent }
\newlabel{fig:android}{{7}{16}{GUI demonstracyjnej aplikacji mobilnej. \relax }{figure.caption.7}{}}
\@writefile{toc}{\contentsline {subsubsection}{\numberline {2.}Demo aplikacji webowej z filtrem FIR}{16}{subsubsection.3.5.2}\protected@file@percent }
\newlabel{lst:demojs}{{10}{16}{Integracja algorytmu CPS z webową aplikacją kliencką}{lstlisting.10}{}}
\@writefile{lol}{\contentsline {lstlisting}{\numberline {10}Integracja algorytmu CPS z webową aplikacją kliencką.}{16}{lstlisting.10}\protected@file@percent }
\citation{asynccs}
\citation{httpclient}
\citation{oxyplot}
\@writefile{lof}{\contentsline {figure}{\numberline {8}{\ignorespaces  GUI demonstracyjnej aplikacji webowej. \relax }}{17}{figure.caption.8}\protected@file@percent }
\newlabel{fig:www}{{8}{17}{GUI demonstracyjnej aplikacji webowej. \relax }{figure.caption.8}{}}
\@writefile{toc}{\contentsline {subsubsection}{\numberline {3.}Demo aplikacji desktopowej z filtrem FIR}{17}{subsubsection.3.5.3}\protected@file@percent }
\newlabel{lst:democs}{{11}{17}{Integracja algorytmu CPS z desktopową aplikacją kliencką}{lstlisting.11}{}}
\@writefile{lol}{\contentsline {lstlisting}{\numberline {11}Integracja algorytmu CPS z desktopową aplikacją kliencką.}{17}{lstlisting.11}\protected@file@percent }
\citation{unittest}
\@writefile{lof}{\contentsline {figure}{\numberline {9}{\ignorespaces  GUI demonstracyjnej aplikacji desktopowej. \relax }}{18}{figure.caption.9}\protected@file@percent }
\newlabel{fig:windows}{{9}{18}{GUI demonstracyjnej aplikacji desktopowej. \relax }{figure.caption.9}{}}
\@writefile{toc}{\contentsline {section}{\numberline {IV.}Scenariusz do zajęć}{18}{section.4}\protected@file@percent }
\@writefile{toc}{\contentsline {subsection}{\numberline {a)}Środki dydaktyczne}{18}{subsection.4.1}\protected@file@percent }
\@writefile{toc}{\contentsline {subsection}{\numberline {b)}Zadania do realizacji}{18}{subsection.4.2}\protected@file@percent }
\newlabel{exercises}{{b)}{18}{Zadania do realizacji}{subsection.4.2}{}}
\bibstyle{../TemplateLatex/IEEEtranPL}
\bibdata{../TemplateLatex/AM_REF}
\bibcite{szablon_raportu}{1}
\bibcite{wymogi_raportu}{2}
\bibcite{bhp}{3}
\bibcite{octave}{4}
\bibcite{scipy}{5}
\bibcite{harris}{6}
\bibcite{octavefir1}{7}
\bibcite{scipyfirwin}{8}
\bibcite{window}{9}
\bibcite{octavefilter}{10}
\bibcite{scipylfilter}{11}
\bibcite{ut}{12}
\bibcite{junit}{13}
\bibcite{unitjs}{14}
\bibcite{mstest}{15}
\bibcite{volley}{16}
\bibcite{graphview}{17}
\bibcite{asyncjs}{18}
\bibcite{jquery}{19}
\bibcite{chartjs}{20}
\bibcite{asynccs}{21}
\bibcite{httpclient}{22}
\bibcite{oxyplot}{23}
\bibcite{unittest}{24}
\newlabel{LastPage}{{}{20}{}{page.20}{}}
\xdef\lastpage@lastpage{20}
\xdef\lastpage@lastpageHy{20}
