This is BibTeX, Version 0.99d (MiKTeX 2.9.7400 64-bit)
Capacity: max_strings=200000, hash_size=200000, hash_prime=170003
The top-level auxiliary file: L10_ENG.aux
The style file: IEEEtran.bst
Reallocating 'singl_function' (item size: 4) to 100 items.
Reallocating 'singl_function' (item size: 4) to 100 items.
Reallocating 'singl_function' (item size: 4) to 100 items.
Reallocating 'wiz_functions' (item size: 4) to 6000 items.
Reallocating 'singl_function' (item size: 4) to 100 items.
Database file #1: ../TemplateLatex/AM_REF.bib
-- IEEEtran.bst version 1.14 (2015/08/26) by Michael Shell.
-- http://www.michaelshell.org/tex/ieeetran/bibtex/
-- See the "IEEEtran_bst_HOWTO.pdf" manual for usage information.

Done.
You've used 24 entries,
            4087 wiz_defined-function locations,
            917 strings with 10274 characters,
and the built_in function-call counts, 7583 in all, are:
= -- 501
> -- 36
< -- 0
+ -- 28
- -- 4
* -- 326
:= -- 1281
add.period$ -- 48
call.type$ -- 24
change.case$ -- 35
chr.to.int$ -- 0
cite$ -- 24
duplicate$ -- 694
empty$ -- 827
format.name$ -- 4
if$ -- 1649
int.to.chr$ -- 0
int.to.str$ -- 24
missing$ -- 159
newline$ -- 141
num.names$ -- 4
pop$ -- 568
preamble$ -- 1
purify$ -- 0
quote$ -- 2
skip$ -- 539
stack$ -- 0
substring$ -- 47
swap$ -- 329
text.length$ -- 0
text.prefix$ -- 0
top$ -- 5
type$ -- 24
warning$ -- 0
while$ -- 4
width$ -- 26
write$ -- 229
