\relax 
\providecommand\hyper@newdestlabel[2]{}
\providecommand\HyperFirstAtBeginDocument{\AtBeginDocument}
\HyperFirstAtBeginDocument{\ifx\hyper@anchor\@undefined
\global\let\oldcontentsline\contentsline
\gdef\contentsline#1#2#3#4{\oldcontentsline{#1}{#2}{#3}}
\global\let\oldnewlabel\newlabel
\gdef\newlabel#1#2{\newlabelxx{#1}#2}
\gdef\newlabelxx#1#2#3#4#5#6{\oldnewlabel{#1}{{#2}{#3}}}
\AtEndDocument{\ifx\hyper@anchor\@undefined
\let\contentsline\oldcontentsline
\let\newlabel\oldnewlabel
\fi}
\fi}
\global\let\hyper@last\relax 
\gdef\HyperFirstAtBeginDocument#1{#1}
\providecommand\HyField@AuxAddToFields[1]{}
\providecommand\HyField@AuxAddToCoFields[2]{}
\bbl@cs{beforestart}
\babel@aux{english}{}
\citation{szablon_raportu}
\citation{wymogi_raportu_ENG}
\citation{bhp_ENG}
\@writefile{toc}{\contentsline {section}{\numberline {I.}Goal}{2}{section.1}\protected@file@percent }
\@writefile{toc}{\contentsline {section}{\numberline {II.}Final Task}{2}{section.2}\protected@file@percent }
\@writefile{toc}{\contentsline {section}{\numberline {III.}Prepare to course}{2}{section.3}\protected@file@percent }
\@writefile{toc}{\contentsline {subsection}{\numberline {a)}Know the safety rules}{2}{subsection.3.1}\protected@file@percent }
\citation{octave}
\citation{scipy}
\@writefile{toc}{\contentsline {subsection}{\numberline {b)}Example DSP algorithm: low pass filter}{3}{subsection.3.2}\protected@file@percent }
\@writefile{lof}{\contentsline {figure}{\numberline {1}{\ignorespaces  Schematic diagram of the adopted development technique for implementing DSP algorithm. \relax }}{3}{figure.caption.1}\protected@file@percent }
\providecommand*\caption@xref[2]{\@setref\relax\@undefined{#1}}
\newlabel{fig:workflow}{{1}{3}{Schematic diagram of the adopted development technique for implementing DSP algorithm. \relax }{figure.caption.1}{}}
\@writefile{toc}{\contentsline {subsubsection}{\numberline {1.}Filter design procedure}{3}{subsubsection.3.2.1}\protected@file@percent }
\citation{harris}
\citation{octavefir1}
\citation{scipyfirwin}
\citation{window}
\citation{octavefilter}
\citation{scipylfilter}
\newlabel{eq0}{{1}{4}{Filter design procedure}{equation.3.1}{}}
\newlabel{eq1}{{2}{4}{Filter design procedure}{equation.3.2}{}}
\@writefile{toc}{\contentsline {subsubsection}{\numberline {2.}Filter design in GNU Octave environment}{5}{subsubsection.3.2.2}\protected@file@percent }
\newlabel{lst:octave}{{1}{5}{Filter design and analysis - Octave environment}{lstlisting.1}{}}
\@writefile{lol}{\contentsline {lstlisting}{\numberline {1}Filter design and analysis - Octave environment.}{5}{lstlisting.1}\protected@file@percent }
\@writefile{lof}{\contentsline {figure}{\numberline {2}{\ignorespaces  Visualization of filter analysis - Octave environment. \relax }}{6}{figure.caption.2}\protected@file@percent }
\newlabel{fig:octave}{{2}{6}{Visualization of filter analysis - Octave environment. \relax }{figure.caption.2}{}}
\@writefile{toc}{\contentsline {subsubsection}{\numberline {3.}Filter design in Python with SciPy}{6}{subsubsection.3.2.3}\protected@file@percent }
\newlabel{lst:scipy}{{2}{6}{Filter design and analysis - Python with SciPy library}{lstlisting.2}{}}
\@writefile{lol}{\contentsline {lstlisting}{\numberline {2}Filter design and analysis - Python with SciPy library.}{6}{lstlisting.2}\protected@file@percent }
\citation{ut}
\@writefile{lof}{\contentsline {figure}{\numberline {3}{\ignorespaces  Visualization of filter analysis - Python with SciPy library. \relax }}{8}{figure.caption.3}\protected@file@percent }
\newlabel{fig:scipy}{{3}{8}{Visualization of filter analysis - Python with SciPy library. \relax }{figure.caption.3}{}}
\@writefile{toc}{\contentsline {subsection}{\numberline {c)}Implementation of DSP in general-purpose programming languages}{8}{subsection.3.3}\protected@file@percent }
\@writefile{toc}{\contentsline {subsubsection}{\numberline {1.}FIR filter in Java}{8}{subsubsection.3.3.1}\protected@file@percent }
\newlabel{lst:firjava}{{3}{8}{FIR filter implementation in Java}{lstlisting.3}{}}
\@writefile{lol}{\contentsline {lstlisting}{\numberline {3}FIR filter implementation in Java.}{8}{lstlisting.3}\protected@file@percent }
\@writefile{toc}{\contentsline {subsubsection}{\numberline {2.}FIR filter in JavaScript}{9}{subsubsection.3.3.2}\protected@file@percent }
\newlabel{lst:firjs}{{4}{9}{FIR filter implementation in JavaScript}{lstlisting.4}{}}
\@writefile{lol}{\contentsline {lstlisting}{\numberline {4}FIR filter implementation in JavaScript.}{9}{lstlisting.4}\protected@file@percent }
\@writefile{toc}{\contentsline {subsubsection}{\numberline {3.}FIR filter in C\#}{10}{subsubsection.3.3.3}\protected@file@percent }
\newlabel{lst:fircs}{{5}{10}{FIR filter implementation in C\#}{lstlisting.5}{}}
\@writefile{lol}{\contentsline {lstlisting}{\numberline {5}FIR filter implementation in C\#.}{10}{lstlisting.5}\protected@file@percent }
\@writefile{toc}{\contentsline {subsection}{\numberline {d)}Verification of correct DSP implementation: unit tests}{10}{subsection.3.4}\protected@file@percent }
\citation{junit}
\@writefile{toc}{\contentsline {subsubsection}{\numberline {1.}FIR filter unit test in Java}{11}{subsubsection.3.4.1}\protected@file@percent }
\newlabel{lst:testjava}{{6}{11}{Unit test code for the \lstinline {MyFir} class (Java) in Android Studio IDE}{lstlisting.6}{}}
\@writefile{lol}{\contentsline {lstlisting}{\numberline {6}Unit test code for the \lstinline {MyFir} class (Java) in Android Studio IDE.}{11}{lstlisting.6}\protected@file@percent }
\citation{unitjs}
\@writefile{lof}{\contentsline {figure}{\numberline {4}{\ignorespaces  Unit test of the \lstinline {MyFir} class (Java) in Android Studio IDE completed successfully. \relax }}{12}{figure.caption.4}\protected@file@percent }
\newlabel{fig:ut_android}{{4}{12}{Unit test of the \lstinline {MyFir} class (Java) in Android Studio IDE completed successfully. \relax }{figure.caption.4}{}}
\@writefile{toc}{\contentsline {subsubsection}{\numberline {2.}FIR filter unit test in JavaScript}{12}{subsubsection.3.4.2}\protected@file@percent }
\newlabel{lst:testjs}{{7}{12}{Unit test code for the \lstinline {MyFir} class (JavaScript) in Chrome browser}{lstlisting.7}{}}
\@writefile{lol}{\contentsline {lstlisting}{\numberline {7}Unit test code for the \lstinline {MyFir} class (JavaScript) in Chrome browser.}{12}{lstlisting.7}\protected@file@percent }
\citation{mstest}
\@writefile{lof}{\contentsline {figure}{\numberline {5}{\ignorespaces  Unit test of the \lstinline {MyFir} class (JavaScript) in Chrome browser completed successfully. \relax }}{13}{figure.caption.5}\protected@file@percent }
\newlabel{fig:ut_www}{{5}{13}{Unit test of the \lstinline {MyFir} class (JavaScript) in Chrome browser completed successfully. \relax }{figure.caption.5}{}}
\@writefile{toc}{\contentsline {subsubsection}{\numberline {3.}FIR filter unit test in C\#}{13}{subsubsection.3.4.3}\protected@file@percent }
\newlabel{lst:testcs}{{8}{13}{Unit test code for the \lstinline {MyFir} class (C\#) in Visual Studio IDE}{lstlisting.8}{}}
\@writefile{lol}{\contentsline {lstlisting}{\numberline {8}Unit test code for the \lstinline {MyFir} class (C\#) in Visual Studio IDE.}{13}{lstlisting.8}\protected@file@percent }
\@writefile{lof}{\contentsline {figure}{\numberline {6}{\ignorespaces  Unit test of the \lstinline {MyFir} class (C\#) in Visual Studio IDE completed successfully. \relax }}{14}{figure.caption.6}\protected@file@percent }
\newlabel{fig:ut_windows}{{6}{14}{Unit test of the \lstinline {MyFir} class (C\#) in Visual Studio IDE completed successfully. \relax }{figure.caption.6}{}}
\citation{volley}
\citation{graphview}
\@writefile{toc}{\contentsline {subsection}{\numberline {e)}Usage of DSP in demo applications}{15}{subsection.3.5}\protected@file@percent }
\@writefile{toc}{\contentsline {subsubsection}{\numberline {1.}Demo of mobile application with the FIR filter}{15}{subsubsection.3.5.1}\protected@file@percent }
\newlabel{lst:demojava}{{9}{15}{Integration of DSP algorithm with a mobile client application}{lstlisting.9}{}}
\@writefile{lol}{\contentsline {lstlisting}{\numberline {9}Integration of DSP algorithm with a mobile client application.}{15}{lstlisting.9}\protected@file@percent }
\citation{asyncjs}
\citation{jquery}
\citation{chartjs}
\@writefile{lof}{\contentsline {figure}{\numberline {7}{\ignorespaces  GUI of demo mobile application. \relax }}{16}{figure.caption.7}\protected@file@percent }
\newlabel{fig:android}{{7}{16}{GUI of demo mobile application. \relax }{figure.caption.7}{}}
\@writefile{toc}{\contentsline {subsubsection}{\numberline {2.}Demo of web application with the FIR filter}{16}{subsubsection.3.5.2}\protected@file@percent }
\newlabel{lst:demojs}{{10}{16}{Integration of DSP algorithm with a web client application}{lstlisting.10}{}}
\@writefile{lol}{\contentsline {lstlisting}{\numberline {10}Integration of DSP algorithm with a web client application.}{16}{lstlisting.10}\protected@file@percent }
\citation{asynccs}
\citation{httpclient}
\citation{oxyplot}
\@writefile{lof}{\contentsline {figure}{\numberline {8}{\ignorespaces  GUI of demo web application. \relax }}{17}{figure.caption.8}\protected@file@percent }
\newlabel{fig:www}{{8}{17}{GUI of demo web application. \relax }{figure.caption.8}{}}
\@writefile{toc}{\contentsline {subsubsection}{\numberline {3.}Demo of desktop application with the FIR filter}{17}{subsubsection.3.5.3}\protected@file@percent }
\newlabel{lst:democs}{{11}{17}{Integration of DSP algorithm with a desktop client application}{lstlisting.11}{}}
\@writefile{lol}{\contentsline {lstlisting}{\numberline {11}Integration of DSP algorithm with a desktop client application.}{17}{lstlisting.11}\protected@file@percent }
\citation{unittest}
\@writefile{lof}{\contentsline {figure}{\numberline {9}{\ignorespaces  GUI of demo desktop application. \relax }}{18}{figure.caption.9}\protected@file@percent }
\newlabel{fig:windows}{{9}{18}{GUI of demo desktop application. \relax }{figure.caption.9}{}}
\@writefile{toc}{\contentsline {section}{\numberline {IV.}Scenario for the class}{18}{section.4}\protected@file@percent }
\@writefile{toc}{\contentsline {subsection}{\numberline {a)}Teaching resources}{18}{subsection.4.1}\protected@file@percent }
\@writefile{toc}{\contentsline {subsection}{\numberline {b)}Tasks}{18}{subsection.4.2}\protected@file@percent }
\newlabel{exercises}{{b)}{18}{Tasks}{subsection.4.2}{}}
\bibstyle{IEEEtran}
\bibdata{../TemplateLatex/AM_REF}
\bibcite{szablon_raportu}{1}
\bibcite{wymogi_raportu_ENG}{2}
\bibcite{bhp_ENG}{3}
\bibcite{octave}{4}
\bibcite{scipy}{5}
\bibcite{harris}{6}
\bibcite{octavefir1}{7}
\bibcite{scipyfirwin}{8}
\bibcite{window}{9}
\bibcite{octavefilter}{10}
\bibcite{scipylfilter}{11}
\bibcite{ut}{12}
\bibcite{junit}{13}
\bibcite{unitjs}{14}
\bibcite{mstest}{15}
\bibcite{volley}{16}
\bibcite{graphview}{17}
\bibcite{asyncjs}{18}
\bibcite{jquery}{19}
\bibcite{chartjs}{20}
\bibcite{asynccs}{21}
\bibcite{httpclient}{22}
\bibcite{oxyplot}{23}
\bibcite{unittest}{24}
\newlabel{LastPage}{{}{20}{}{page.20}{}}
\xdef\lastpage@lastpage{20}
\xdef\lastpage@lastpageHy{20}
